<svg xmlns="http://www.w3.org/2000/svg" xmlns:xlink="http://www.w3.org/1999/xlink" width="503" height="658" viewBox="0 0 503 658">
  <defs>
    <clipPath id="clip-path">
      <rect id="Rectángulo_11336" data-name="Rectángulo 11336" width="503" height="658" transform="translate(0 4800)" fill="#fff" stroke="#707070" stroke-width="1" opacity="0.67"/>
    </clipPath>
  </defs>
  <g id="Enmascarar_grupo_49" data-name="Enmascarar grupo 49" transform="translate(0 -4800)" clip-path="url(#clip-path)">
    <g id="brujula" transform="translate(-39685.844 2991.881)">
      <g id="Grupo_6923" data-name="Grupo 6923" transform="translate(39555.844 1819.119)">
        <g id="Grupo_6922" data-name="Grupo 6922" transform="translate(0 0)">
          <g id="Grupo_6695" data-name="Grupo 6695" transform="translate(194.803 194.705)">
            <path id="Trazado_3135" data-name="Trazado 3135" d="M1054.389,996.007l81.887-121.916-122.2,81.695-122.2-81.695L973.76,996.007l-81.887,121.914,122.2-81.7,122.2,81.7Z" transform="translate(-891.873 -874.091)" fill="#656669"/>
          </g>
          <g id="Grupo_6696" data-name="Grupo 6696" transform="translate(194.803 191.757)">
            <path id="Trazado_3136" data-name="Trazado 3136" d="M989.935,1011.381l146.34,97.832-244.4-243.828Z" transform="translate(-891.873 -865.385)" fill="#14294c"/>
          </g>
          <g id="Grupo_6697" data-name="Grupo 6697" transform="translate(194.803 191.757)">
            <path id="Trazado_3137" data-name="Trazado 3137" d="M891.873,865.385l244.4,243.828-98.062-146Z" transform="translate(-891.873 -865.385)" fill="#2e4160"/>
          </g>
          <g id="Grupo_6698" data-name="Grupo 6698" transform="translate(194.803 191.757)">
            <path id="Trazado_3138" data-name="Trazado 3138" d="M989.935,963.217l-98.062,146,244.4-243.828Z" transform="translate(-891.873 -865.385)" fill="#14294c"/>
          </g>
          <g id="Grupo_6699" data-name="Grupo 6699" transform="translate(194.803 191.757)">
            <path id="Trazado_3139" data-name="Trazado 3139" d="M1136.275,865.385l-244.4,243.828,146.34-97.832Z" transform="translate(-891.873 -865.385)" fill="#2e4160"/>
          </g>
          <g id="Grupo_6700" data-name="Grupo 6700" transform="translate(279.931 276.686)">
            <path id="Trazado_3140" data-name="Trazado 3140" d="M1217.424,1153.187a37.072,37.072,0,1,1-37.071-36.986A37.028,37.028,0,0,1,1217.424,1153.187Z" transform="translate(-1143.281 -1116.202)" fill="#14294c"/>
          </g>
          <g id="Grupo_6701" data-name="Grupo 6701" transform="translate(225.991 220.45)">
            <path id="Trazado_3141" data-name="Trazado 3141" d="M1075.954,951.459c-49.976,0-90.635,40.563-90.635,90.422s40.659,90.424,90.635,90.424,90.635-40.563,90.635-90.424S1125.931,951.459,1075.954,951.459Zm0,182.182c-50.715,0-91.975-41.164-91.975-91.76s41.26-91.758,91.975-91.758,91.975,41.162,91.975,91.758S1126.669,1133.641,1075.954,1133.641Z" transform="translate(-983.98 -950.122)" fill="#14294c"/>
          </g>
          <g id="Grupo_6702" data-name="Grupo 6702" transform="translate(210.336 204.831)">
            <path id="Trazado_3142" data-name="Trazado 3142" d="M1045.376,910.274c-55.878,0-101.339,45.353-101.339,101.1s45.46,101.1,101.339,101.1,101.338-45.354,101.338-101.1S1101.253,910.274,1045.376,910.274Zm0,208.477c-59.348,0-107.63-48.17-107.63-107.377S986.028,904,1045.376,904,1153,952.166,1153,1011.373,1104.723,1118.751,1045.376,1118.751Z" transform="translate(-937.746 -903.997)" fill="#14294c"/>
          </g>
          <g id="Grupo_6703" data-name="Grupo 6703" transform="translate(68.673 66.863)">
            <path id="Trazado_3143" data-name="Trazado 3143" d="M768.671,501a244.537,244.537,0,1,0,173.116,71.539A243.515,243.515,0,0,0,768.671,501Zm0,492.956a249,249,0,1,1,176.276-72.844A247.952,247.952,0,0,1,768.671,993.953Z" transform="translate(-519.379 -496.54)" fill="#14294c"/>
          </g>
          <g id="Grupo_6704" data-name="Grupo 6704" transform="translate(316.053 39.608)">
            <rect id="Rectángulo_11307" data-name="Rectángulo 11307" width="3.824" height="29.484" fill="#14294c"/>
          </g>
          <g id="Grupo_6705" data-name="Grupo 6705" transform="translate(316.053 562.048)">
            <rect id="Rectángulo_11308" data-name="Rectángulo 11308" width="3.824" height="29.484" fill="#14294c"/>
          </g>
          <g id="Grupo_6706" data-name="Grupo 6706" transform="translate(270.484 54.961)">
            <path id="Trazado_3144" data-name="Trazado 3144" d="M1118.493,479.523l-3.114-17.618,2.933-.516,3.114,17.618Z" transform="translate(-1115.379 -461.39)" fill="#14294c"/>
          </g>
          <g id="Grupo_6707" data-name="Grupo 6707" transform="translate(359.4 558.046)">
            <path id="Trazado_3145" data-name="Trazado 3145" d="M1381.087,1965.267l-3.113-17.617,2.934-.516,3.113,17.618Z" transform="translate(-1377.974 -1947.134)" fill="#14294c"/>
          </g>
          <g id="Grupo_6708" data-name="Grupo 6708" transform="translate(225.935 66.639)">
            <path id="Trazado_3146" data-name="Trazado 3146" d="M989.947,513.7l-6.133-16.811,2.8-1.016,6.133,16.811Z" transform="translate(-983.815 -495.878)" fill="#14294c"/>
          </g>
          <g id="Grupo_6709" data-name="Grupo 6709" transform="translate(401.064 546.677)">
            <path id="Trazado_3147" data-name="Trazado 3147" d="M1507.152,1931.384l-6.134-16.81,2.8-1.017,6.134,16.81Z" transform="translate(-1501.019 -1913.558)" fill="#14294c"/>
          </g>
          <g id="Grupo_6710" data-name="Grupo 6710" transform="translate(184.182 85.88)">
            <path id="Trazado_3148" data-name="Trazado 3148" d="M869.474,569.679l-8.966-15.492,2.579-1.486,8.966,15.492Z" transform="translate(-860.508 -552.702)" fill="#14294c"/>
          </g>
          <g id="Grupo_6711" data-name="Grupo 6711" transform="translate(440.206 528.285)">
            <path id="Trazado_3149" data-name="Trazado 3149" d="M1625.579,1876.218l-8.965-15.491,2.579-1.487,8.965,15.492Z" transform="translate(-1616.614 -1859.24)" fill="#14294c"/>
          </g>
          <g id="Grupo_6712" data-name="Grupo 6712" transform="translate(146.493 112.098)">
            <path id="Trazado_3150" data-name="Trazado 3150" d="M760.73,645.746l-11.527-13.7,2.282-1.91,11.527,13.7Z" transform="translate(-749.203 -630.132)" fill="#14294c"/>
          </g>
          <g id="Grupo_6713" data-name="Grupo 6713" transform="translate(475.631 503.43)">
            <path id="Trazado_3151" data-name="Trazado 3151" d="M1732.761,1801.452l-11.526-13.7,2.281-1.91,11.526,13.7Z" transform="translate(-1721.235 -1785.837)" fill="#14294c"/>
          </g>
          <g id="Grupo_6714" data-name="Grupo 6714" transform="translate(114.016 144.501)">
            <path id="Trazado_3152" data-name="Trazado 3152" d="M667.025,739.6l-13.737-11.5,1.914-2.276,13.738,11.5Z" transform="translate(-653.288 -725.825)" fill="#14294c"/>
          </g>
          <g id="Grupo_6715" data-name="Grupo 6715" transform="translate(506.266 472.866)">
            <path id="Trazado_3153" data-name="Trazado 3153" d="M1825.444,1709.35l-13.737-11.5,1.914-2.276,13.737,11.5Z" transform="translate(-1811.708 -1695.574)" fill="#14294c"/>
          </g>
          <g id="Grupo_6716" data-name="Grupo 6716" transform="translate(87.734 182.1)">
            <path id="Trazado_3154" data-name="Trazado 3154" d="M591.2,848.383l-15.531-8.945,1.49-2.573,15.53,8.945Z" transform="translate(-575.671 -836.865)" fill="#14294c"/>
          </g>
          <g id="Grupo_6717" data-name="Grupo 6717" transform="translate(531.181 437.523)">
            <path id="Trazado_3155" data-name="Trazado 3155" d="M1900.818,1602.715l-15.529-8.945,1.489-2.573,15.529,8.944Z" transform="translate(-1885.289 -1591.197)" fill="#14294c"/>
          </g>
          <g id="Grupo_6718" data-name="Grupo 6718" transform="translate(68.45 223.756)">
            <path id="Trazado_3156" data-name="Trazado 3156" d="M535.57,968.8l-16.851-6.116,1.018-2.792L536.588,966Z" transform="translate(-518.72 -959.886)" fill="#14294c"/>
          </g>
          <g id="Grupo_6719" data-name="Grupo 6719" transform="translate(549.617 398.474)">
            <path id="Trazado_3157" data-name="Trazado 3157" d="M1956.584,1484.786l-16.85-6.119,1.019-2.792,16.85,6.119Z" transform="translate(-1939.734 -1475.875)" fill="#14294c"/>
          </g>
          <g id="Grupo_6720" data-name="Grupo 6720" transform="translate(56.746 268.201)">
            <path id="Trazado_3158" data-name="Trazado 3158" d="M501.814,1097.175l-17.66-3.1.517-2.926,17.66,3.1Z" transform="translate(-484.154 -1091.145)" fill="#14294c"/>
          </g>
          <g id="Grupo_6721" data-name="Grupo 6721" transform="translate(561.015 356.907)">
            <path id="Trazado_3159" data-name="Trazado 3159" d="M1991.054,1359.15l-17.659-3.106.517-2.926,17.66,3.1Z" transform="translate(-1973.395 -1353.117)" fill="#14294c"/>
          </g>
          <g id="Grupo_6722" data-name="Grupo 6722" transform="translate(41.357 313.661)">
            <path id="Trazado_3160" data-name="Trazado 3160" d="M438.708,1229.215V1225.4l29.554,0v3.815Z" transform="translate(-438.708 -1225.399)" fill="#14294c"/>
          </g>
          <g id="Grupo_6723" data-name="Grupo 6723" transform="translate(565.027 313.663)">
            <rect id="Rectángulo_11309" data-name="Rectángulo 11309" width="29.553" height="3.814" transform="translate(0 0)" fill="#14294c"/>
          </g>
          <g id="Grupo_6724" data-name="Grupo 6724" transform="translate(56.747 356.905)">
            <path id="Trazado_3161" data-name="Trazado 3161" d="M484.673,1359.145l-.517-2.927,17.659-3.107.517,2.926Z" transform="translate(-484.157 -1353.111)" fill="#14294c"/>
          </g>
          <g id="Grupo_6725" data-name="Grupo 6725" transform="translate(561.015 268.199)">
            <path id="Trazado_3162" data-name="Trazado 3162" d="M1973.911,1097.171l-.517-2.926,17.659-3.106.517,2.926Z" transform="translate(-1973.395 -1091.139)" fill="#14294c"/>
          </g>
          <g id="Grupo_6726" data-name="Grupo 6726" transform="translate(68.451 398.471)">
            <path id="Trazado_3163" data-name="Trazado 3163" d="M519.741,1484.781l-1.019-2.792,16.85-6.121,1.018,2.792Z" transform="translate(-518.722 -1475.868)" fill="#14294c"/>
          </g>
          <g id="Grupo_6727" data-name="Grupo 6727" transform="translate(549.617 223.754)">
            <path id="Trazado_3164" data-name="Trazado 3164" d="M1940.752,968.791,1939.734,966l16.85-6.119,1.019,2.792Z" transform="translate(-1939.734 -959.88)" fill="#14294c"/>
          </g>
          <g id="Grupo_6728" data-name="Grupo 6728" transform="translate(87.736 437.52)">
            <path id="Trazado_3165" data-name="Trazado 3165" d="M577.167,1602.708l-1.489-2.573,15.529-8.945,1.489,2.573Z" transform="translate(-575.678 -1591.19)" fill="#14294c"/>
          </g>
          <g id="Grupo_6729" data-name="Grupo 6729" transform="translate(531.181 182.098)">
            <path id="Trazado_3166" data-name="Trazado 3166" d="M1886.778,848.377l-1.489-2.573,15.529-8.945,1.489,2.573Z" transform="translate(-1885.289 -836.859)" fill="#14294c"/>
          </g>
          <g id="Grupo_6730" data-name="Grupo 6730" transform="translate(114.018 472.862)">
            <path id="Trazado_3167" data-name="Trazado 3167" d="M655.209,1709.338l-1.914-2.276,13.736-11.5,1.915,2.276Z" transform="translate(-653.295 -1695.563)" fill="#14294c"/>
          </g>
          <g id="Grupo_6731" data-name="Grupo 6731" transform="translate(506.268 144.497)">
            <path id="Trazado_3168" data-name="Trazado 3168" d="M1813.629,739.589l-1.915-2.276,13.736-11.5,1.915,2.276Z" transform="translate(-1811.714 -725.814)" fill="#14294c"/>
          </g>
          <g id="Grupo_6732" data-name="Grupo 6732" transform="translate(146.496 503.424)">
            <path id="Trazado_3169" data-name="Trazado 3169" d="M751.492,1801.436l-2.282-1.91,11.526-13.707,2.282,1.91Z" transform="translate(-749.21 -1785.82)" fill="#14294c"/>
          </g>
          <g id="Grupo_6733" data-name="Grupo 6733" transform="translate(475.633 112.095)">
            <path id="Trazado_3170" data-name="Trazado 3170" d="M1723.521,645.735l-2.281-1.91,11.525-13.7,2.281,1.91Z" transform="translate(-1721.24 -630.121)" fill="#14294c"/>
          </g>
          <g id="Grupo_6734" data-name="Grupo 6734" transform="translate(184.185 528.279)">
            <path id="Trazado_3171" data-name="Trazado 3171" d="M863.1,1876.2l-2.579-1.486,8.965-15.494,2.579,1.486Z" transform="translate(-860.516 -1859.223)" fill="#14294c"/>
          </g>
          <g id="Grupo_6735" data-name="Grupo 6735" transform="translate(440.207 85.876)">
            <path id="Trazado_3172" data-name="Trazado 3172" d="M1619.2,569.665l-2.579-1.486,8.965-15.49,2.579,1.486Z" transform="translate(-1616.618 -552.689)" fill="#14294c"/>
          </g>
          <g id="Grupo_6736" data-name="Grupo 6736" transform="translate(225.938 546.671)">
            <path id="Trazado_3173" data-name="Trazado 3173" d="M986.622,1931.369l-2.8-1.017,6.132-16.812,2.8,1.016Z" transform="translate(-983.823 -1913.54)" fill="#14294c"/>
          </g>
          <g id="Grupo_6737" data-name="Grupo 6737" transform="translate(401.067 66.635)">
            <path id="Trazado_3174" data-name="Trazado 3174" d="M1503.825,513.691l-2.8-1.016,6.132-16.809,2.8,1.016Z" transform="translate(-1501.026 -495.867)" fill="#14294c"/>
          </g>
          <g id="Grupo_6738" data-name="Grupo 6738" transform="translate(270.487 558.04)">
            <path id="Trazado_3175" data-name="Trazado 3175" d="M1118.323,1965.251l-2.933-.516,3.113-17.62,2.933.516Z" transform="translate(-1115.39 -1947.116)" fill="#14294c"/>
          </g>
          <g id="Grupo_6739" data-name="Grupo 6739" transform="translate(359.401 54.957)">
            <path id="Trazado_3176" data-name="Trazado 3176" d="M1380.91,479.512l-2.934-.516,3.113-17.618,2.934.516Z" transform="translate(-1377.976 -461.378)" fill="#14294c"/>
          </g>
          <g id="Grupo_6740" data-name="Grupo 6740" transform="translate(308.343 58.832)">
            <path id="Trazado_3177" data-name="Trazado 3177" d="M1227.5,481.7l-.308-8.836,1.274-.045.308,8.836Z" transform="translate(-1227.187 -472.823)" fill="#14294c"/>
          </g>
          <g id="Grupo_6741" data-name="Grupo 6741" transform="translate(326.005 563.427)">
            <path id="Trazado_3178" data-name="Trazado 3178" d="M1279.658,1971.907l-.309-8.836,1.274-.044.309,8.836Z" transform="translate(-1279.349 -1963.026)" fill="#14294c"/>
          </g>
          <g id="Grupo_6742" data-name="Grupo 6742" transform="translate(299.369 59.28)">
            <path id="Trazado_3179" data-name="Trazado 3179" d="M1201.3,483.052l-.617-8.819,1.272-.089.617,8.819Z" transform="translate(-1200.686 -474.144)" fill="#14294c"/>
          </g>
          <g id="Grupo_6743" data-name="Grupo 6743" transform="translate(334.671 562.953)">
            <path id="Trazado_3180" data-name="Trazado 3180" d="M1305.56,1970.533l-.618-8.819,1.272-.088.618,8.818Z" transform="translate(-1304.942 -1961.626)" fill="#14294c"/>
          </g>
          <g id="Grupo_6744" data-name="Grupo 6744" transform="translate(290.418 60.04)">
            <path id="Trazado_3181" data-name="Trazado 3181" d="M1175.176,485.314l-.925-8.791,1.267-.133.925,8.792Z" transform="translate(-1174.251 -476.389)" fill="#14294c"/>
          </g>
          <g id="Grupo_6745" data-name="Grupo 6745" transform="translate(343.318 562.176)">
            <path id="Trazado_3182" data-name="Trazado 3182" d="M1331.406,1968.258l-.926-8.793,1.267-.132.926,8.793Z" transform="translate(-1330.48 -1959.332)" fill="#14294c"/>
          </g>
          <g id="Grupo_6746" data-name="Grupo 6746" transform="translate(281.5 61.111)">
            <path id="Trazado_3183" data-name="Trazado 3183" d="M1149.146,488.482l-1.232-8.753,1.262-.177,1.232,8.753Z" transform="translate(-1147.914 -479.552)" fill="#14294c"/>
          </g>
          <g id="Grupo_6747" data-name="Grupo 6747" transform="translate(351.933 561.097)">
            <path id="Trazado_3184" data-name="Trazado 3184" d="M1357.155,1965.08l-1.234-8.757,1.263-.177,1.234,8.757Z" transform="translate(-1355.921 -1956.146)" fill="#14294c"/>
          </g>
          <g id="Grupo_6748" data-name="Grupo 6748" transform="translate(263.81 64.179)">
            <path id="Trazado_3185" data-name="Trazado 3185" d="M1097.512,497.526l-1.842-8.648,1.247-.264,1.842,8.647Z" transform="translate(-1095.671 -488.614)" fill="#14294c"/>
          </g>
          <g id="Grupo_6749" data-name="Grupo 6749" transform="translate(369.032 558.049)">
            <path id="Trazado_3186" data-name="Trazado 3186" d="M1408.262,1956.056l-1.843-8.647,1.247-.264,1.843,8.647Z" transform="translate(-1406.419 -1947.145)" fill="#14294c"/>
          </g>
          <g id="Grupo_6750" data-name="Grupo 6750" transform="translate(255.059 66.176)">
            <path id="Trazado_3187" data-name="Trazado 3187" d="M1071.967,503.4l-2.142-8.576,1.237-.307,2.142,8.576Z" transform="translate(-1069.825 -494.512)" fill="#14294c"/>
          </g>
          <g id="Grupo_6751" data-name="Grupo 6751" transform="translate(377.492 556.081)">
            <path id="Trazado_3188" data-name="Trazado 3188" d="M1433.546,1950.216l-2.144-8.578,1.237-.308,2.144,8.578Z" transform="translate(-1431.403 -1941.33)" fill="#14294c"/>
          </g>
          <g id="Grupo_6752" data-name="Grupo 6752" transform="translate(246.383 68.474)">
            <path id="Trazado_3189" data-name="Trazado 3189" d="M1046.645,510.148l-2.442-8.5,1.225-.351,2.442,8.5Z" transform="translate(-1044.203 -501.298)" fill="#14294c"/>
          </g>
          <g id="Grupo_6753" data-name="Grupo 6753" transform="translate(385.879 553.817)">
            <path id="Trazado_3190" data-name="Trazado 3190" d="M1458.617,1943.5l-2.444-8.5,1.226-.351,2.444,8.5Z" transform="translate(-1456.173 -1934.645)" fill="#14294c"/>
          </g>
          <g id="Grupo_6754" data-name="Grupo 6754" transform="translate(237.795 71.076)">
            <path id="Trazado_3191" data-name="Trazado 3191" d="M1021.578,517.781l-2.736-8.407,1.212-.392,2.737,8.407Z" transform="translate(-1018.842 -508.982)" fill="#14294c"/>
          </g>
          <g id="Grupo_6755" data-name="Grupo 6755" transform="translate(394.184 551.264)">
            <path id="Trazado_3192" data-name="Trazado 3192" d="M1483.439,1935.909l-2.74-8.409,1.212-.393,2.74,8.409Z" transform="translate(-1480.699 -1927.107)" fill="#14294c"/>
          </g>
          <g id="Grupo_6756" data-name="Grupo 6756" transform="translate(220.923 77.164)">
            <path id="Trazado_3193" data-name="Trazado 3193" d="M972.333,535.636l-3.319-8.2,1.182-.477,3.319,8.2Z" transform="translate(-969.015 -526.962)" fill="#14294c"/>
          </g>
          <g id="Grupo_6757" data-name="Grupo 6757" transform="translate(410.508 545.302)">
            <path id="Trazado_3194" data-name="Trazado 3194" d="M1532.23,1918.173l-3.32-8.2,1.182-.477,3.319,8.2Z" transform="translate(-1528.91 -1909.499)" fill="#14294c"/>
          </g>
          <g id="Grupo_6758" data-name="Grupo 6758" transform="translate(212.659 80.649)">
            <path id="Trazado_3195" data-name="Trazado 3195" d="M948.21,545.846l-3.6-8.075,1.165-.518,3.6,8.076Z" transform="translate(-944.607 -537.253)" fill="#14294c"/>
          </g>
          <g id="Grupo_6759" data-name="Grupo 6759" transform="translate(418.504 541.899)">
            <path id="Trazado_3196" data-name="Trazado 3196" d="M1556.128,1908.041l-3.6-8.077,1.165-.518,3.6,8.077Z" transform="translate(-1552.524 -1899.446)" fill="#14294c"/>
          </g>
          <g id="Grupo_6760" data-name="Grupo 6760" transform="translate(204.523 84.418)">
            <path id="Trazado_3197" data-name="Trazado 3197" d="M924.463,556.888l-3.883-7.946,1.146-.557,3.884,7.945Z" transform="translate(-920.58 -548.385)" fill="#14294c"/>
          </g>
          <g id="Grupo_6761" data-name="Grupo 6761" transform="translate(426.378 538.219)">
            <path id="Trazado_3198" data-name="Trazado 3198" d="M1579.662,1897.086l-3.885-7.948,1.146-.558,3.885,7.947Z" transform="translate(-1575.777 -1888.581)" fill="#14294c"/>
          </g>
          <g id="Grupo_6762" data-name="Grupo 6762" transform="translate(196.526 88.469)">
            <path id="Trazado_3199" data-name="Trazado 3199" d="M901.12,568.751l-4.158-7.805,1.126-.6,4.158,7.805Z" transform="translate(-896.962 -560.348)" fill="#14294c"/>
          </g>
          <g id="Grupo_6763" data-name="Grupo 6763" transform="translate(434.12 534.269)">
            <path id="Trazado_3200" data-name="Trazado 3200" d="M1602.8,1885.319l-4.16-7.807,1.126-.6,4.16,7.807Z" transform="translate(-1598.641 -1876.915)" fill="#14294c"/>
          </g>
          <g id="Grupo_6764" data-name="Grupo 6764" transform="translate(180.984 97.393)">
            <path id="Trazado_3201" data-name="Trazado 3201" d="M855.758,594.875l-4.7-7.5,1.081-.674,4.7,7.5Z" transform="translate(-851.063 -586.702)" fill="#14294c"/>
          </g>
          <g id="Grupo_6765" data-name="Grupo 6765" transform="translate(449.171 525.575)">
            <path id="Trazado_3202" data-name="Trazado 3202" d="M1647.788,1859.411l-4.7-7.5,1.082-.674,4.7,7.5Z" transform="translate(-1643.091 -1851.238)" fill="#14294c"/>
          </g>
          <g id="Grupo_6766" data-name="Grupo 6766" transform="translate(173.46 102.26)">
            <path id="Trazado_3203" data-name="Trazado 3203" d="M833.8,609.116l-4.953-7.327,1.057-.711,4.953,7.328Z" transform="translate(-828.843 -601.077)" fill="#14294c"/>
          </g>
          <g id="Grupo_6767" data-name="Grupo 6767" transform="translate(456.462 520.841)">
            <path id="Trazado_3204" data-name="Trazado 3204" d="M1669.577,1845.3l-4.955-7.329,1.057-.711,4.956,7.33Z" transform="translate(-1664.622 -1837.258)" fill="#14294c"/>
          </g>
          <g id="Grupo_6768" data-name="Grupo 6768" transform="translate(166.111 107.384)">
            <path id="Trazado_3205" data-name="Trazado 3205" d="M812.344,624.108l-5.207-7.151,1.031-.747,5.206,7.151Z" transform="translate(-807.138 -616.209)" fill="#14294c"/>
          </g>
          <g id="Grupo_6769" data-name="Grupo 6769" transform="translate(463.582 515.857)">
            <path id="Trazado_3206" data-name="Trazado 3206" d="M1690.859,1830.441l-5.21-7.153,1.031-.748,5.209,7.153Z" transform="translate(-1685.649 -1822.54)" fill="#14294c"/>
          </g>
          <g id="Grupo_6770" data-name="Grupo 6770" transform="translate(158.947 112.763)">
            <path id="Trazado_3207" data-name="Trazado 3207" d="M791.434,639.841l-5.454-6.965,1-.783,5.454,6.965Z" transform="translate(-785.981 -632.093)" fill="#14294c"/>
          </g>
          <g id="Grupo_6771" data-name="Grupo 6771" transform="translate(470.527 510.629)">
            <path id="Trazado_3208" data-name="Trazado 3208" d="M1711.616,1814.85l-5.456-6.967,1-.783,5.455,6.967Z" transform="translate(-1706.16 -1807.1)" fill="#14294c"/>
          </g>
          <g id="Grupo_6772" data-name="Grupo 6772" transform="translate(145.207 124.251)">
            <path id="Trazado_3209" data-name="Trazado 3209" d="M751.335,673.445l-5.929-6.571.948-.85,5.929,6.571Z" transform="translate(-745.405 -666.023)" fill="#14294c"/>
          </g>
          <g id="Grupo_6773" data-name="Grupo 6773" transform="translate(483.848 499.467)">
            <path id="Trazado_3210" data-name="Trazado 3210" d="M1751.434,1781.558l-5.932-6.571.948-.851,5.931,6.571Z" transform="translate(-1745.502 -1774.136)" fill="#14294c"/>
          </g>
          <g id="Grupo_6774" data-name="Grupo 6774" transform="translate(138.651 130.351)">
            <path id="Trazado_3211" data-name="Trazado 3211" d="M732.2,691.281l-6.154-6.359.917-.884,6.154,6.359Z" transform="translate(-726.042 -684.038)" fill="#14294c"/>
          </g>
          <g id="Grupo_6775" data-name="Grupo 6775" transform="translate(490.21 493.546)">
            <path id="Trazado_3212" data-name="Trazado 3212" d="M1770.447,1763.894l-6.156-6.361.917-.884,6.156,6.361Z" transform="translate(-1764.291 -1756.649)" fill="#14294c"/>
          </g>
          <g id="Grupo_6776" data-name="Grupo 6776" transform="translate(132.312 136.676)">
            <path id="Trazado_3213" data-name="Trazado 3213" d="M713.693,709.771l-6.372-6.142.885-.915,6.372,6.142Z" transform="translate(-707.322 -702.715)" fill="#14294c"/>
          </g>
          <g id="Grupo_6777" data-name="Grupo 6777" transform="translate(496.361 487.41)">
            <path id="Trazado_3214" data-name="Trazado 3214" d="M1788.831,1745.585l-6.376-6.142.886-.915,6.376,6.141Z" transform="translate(-1782.455 -1738.529)" fill="#14294c"/>
          </g>
          <g id="Grupo_6778" data-name="Grupo 6778" transform="translate(126.199 143.218)">
            <path id="Trazado_3215" data-name="Trazado 3215" d="M695.851,728.9l-6.582-5.916.853-.945,6.582,5.917Z" transform="translate(-689.269 -722.036)" fill="#14294c"/>
          </g>
          <g id="Grupo_6779" data-name="Grupo 6779" transform="translate(502.296 481.063)">
            <path id="Trazado_3216" data-name="Trazado 3216" d="M1806.568,1726.642l-6.584-5.915.853-.946,6.584,5.915Z" transform="translate(-1799.984 -1719.781)" fill="#14294c"/>
          </g>
          <g id="Grupo_6780" data-name="Grupo 6780" transform="translate(114.681 156.923)">
            <path id="Trazado_3217" data-name="Trazado 3217" d="M662.234,768.955l-6.982-5.444.785-1,6.982,5.443Z" transform="translate(-655.252 -762.51)" fill="#14294c"/>
          </g>
          <g id="Grupo_6781" data-name="Grupo 6781" transform="translate(513.485 467.772)">
            <path id="Trazado_3218" data-name="Trazado 3218" d="M1840.013,1686.978l-6.985-5.444.785-1,6.985,5.443Z" transform="translate(-1833.028 -1680.532)" fill="#14294c"/>
          </g>
          <g id="Grupo_6782" data-name="Grupo 6782" transform="translate(109.29 164.07)">
            <path id="Trazado_3219" data-name="Trazado 3219" d="M646.5,789.844l-7.168-5.2.748-1.029,7.169,5.2Z" transform="translate(-639.333 -783.619)" fill="#14294c"/>
          </g>
          <g id="Grupo_6783" data-name="Grupo 6783" transform="translate(518.726 460.845)">
            <path id="Trazado_3220" data-name="Trazado 3220" d="M1855.674,1666.3l-7.169-5.2.749-1.029,7.17,5.2Z" transform="translate(-1848.505 -1660.074)" fill="#14294c"/>
          </g>
          <g id="Grupo_6784" data-name="Grupo 6784" transform="translate(104.154 171.403)">
            <path id="Trazado_3221" data-name="Trazado 3221" d="M631.508,811.271l-7.344-4.944.713-1.054,7.344,4.944Z" transform="translate(-624.163 -805.273)" fill="#14294c"/>
          </g>
          <g id="Grupo_6785" data-name="Grupo 6785" transform="translate(523.721 453.741)">
            <path id="Trazado_3222" data-name="Trazado 3222" d="M1870.6,1645.091l-7.349-4.942.713-1.054,7.349,4.942Z" transform="translate(-1863.256 -1639.095)" fill="#14294c"/>
          </g>
          <g id="Grupo_6786" data-name="Grupo 6786" transform="translate(99.278 178.911)">
            <path id="Trazado_3223" data-name="Trazado 3223" d="M617.276,833.211l-7.512-4.686.675-1.078,7.512,4.686Z" transform="translate(-609.764 -827.447)" fill="#14294c"/>
          </g>
          <g id="Grupo_6787" data-name="Grupo 6787" transform="translate(528.468 446.467)">
            <path id="Trazado_3224" data-name="Trazado 3224" d="M1884.79,1623.376l-7.514-4.686.675-1.078,7.514,4.686Z" transform="translate(-1877.276 -1617.612)" fill="#14294c"/>
          </g>
          <g id="Grupo_6788" data-name="Grupo 6788" transform="translate(90.331 194.415)">
            <path id="Trazado_3225" data-name="Trazado 3225" d="M591.163,878.509l-7.823-4.15.6-1.124,7.823,4.151Z" transform="translate(-583.34 -873.236)" fill="#14294c"/>
          </g>
          <g id="Grupo_6789" data-name="Grupo 6789" transform="translate(537.182 431.452)">
            <path id="Trazado_3226" data-name="Trazado 3226" d="M1910.837,1578.54l-7.825-4.15.6-1.123,7.826,4.15Z" transform="translate(-1903.011 -1573.268)" fill="#14294c"/>
          </g>
          <g id="Grupo_6790" data-name="Grupo 6790" transform="translate(86.27 202.393)">
            <path id="Trazado_3227" data-name="Trazado 3227" d="M579.311,901.816l-7.963-3.876.558-1.143,7.964,3.877Z" transform="translate(-571.348 -896.797)" fill="#14294c"/>
          </g>
          <g id="Grupo_6791" data-name="Grupo 6791" transform="translate(541.141 423.727)">
            <path id="Trazado_3228" data-name="Trazado 3228" d="M1922.67,1555.475l-7.966-3.877.559-1.144,7.966,3.876Z" transform="translate(-1914.704 -1550.454)" fill="#14294c"/>
          </g>
          <g id="Grupo_6792" data-name="Grupo 6792" transform="translate(82.493 210.51)">
            <path id="Trazado_3229" data-name="Trazado 3229" d="M568.285,925.525l-8.093-3.6.519-1.162,8.093,3.6Z" transform="translate(-560.192 -920.767)" fill="#14294c"/>
          </g>
          <g id="Grupo_6793" data-name="Grupo 6793" transform="translate(544.829 415.872)">
            <path id="Trazado_3230" data-name="Trazado 3230" d="M1933.692,1532.014l-8.1-3.6.519-1.162,8.1,3.6Z" transform="translate(-1925.596 -1527.256)" fill="#14294c"/>
          </g>
          <g id="Grupo_6794" data-name="Grupo 6794" transform="translate(79.001 218.754)">
            <path id="Trazado_3231" data-name="Trazado 3231" d="M558.095,949.608l-8.214-3.314.478-1.179,8.213,3.314Z" transform="translate(-549.881 -945.115)" fill="#14294c"/>
          </g>
          <g id="Grupo_6795" data-name="Grupo 6795" transform="translate(548.241 407.893)">
            <path id="Trazado_3232" data-name="Trazado 3232" d="M1943.887,1508.185l-8.215-3.314.477-1.179,8.216,3.313Z" transform="translate(-1935.672 -1503.693)" fill="#14294c"/>
          </g>
          <g id="Grupo_6796" data-name="Grupo 6796" transform="translate(72.897 235.587)">
            <path id="Trazado_3233" data-name="Trazado 3233" d="M540.279,998.768l-8.427-2.734.394-1.209,8.427,2.734Z" transform="translate(-531.853 -994.825)" fill="#14294c"/>
          </g>
          <g id="Grupo_6797" data-name="Grupo 6797" transform="translate(554.218 391.611)">
            <path id="Trazado_3234" data-name="Trazado 3234" d="M1961.75,1459.549l-8.428-2.731.394-1.209,8.428,2.731Z" transform="translate(-1953.322 -1455.608)" fill="#14294c"/>
          </g>
          <g id="Grupo_6798" data-name="Grupo 6798" transform="translate(70.291 244.156)">
            <path id="Trazado_3235" data-name="Trazado 3235" d="M532.673,1023.791l-8.517-2.436.351-1.223,8.516,2.436Z" transform="translate(-524.156 -1020.132)" fill="#14294c"/>
          </g>
          <g id="Grupo_6799" data-name="Grupo 6799" transform="translate(556.776 383.324)">
            <path id="Trazado_3236" data-name="Trazado 3236" d="M1969.4,1434.794l-8.519-2.439.351-1.223,8.519,2.438Z" transform="translate(-1960.878 -1431.132)" fill="#14294c"/>
          </g>
          <g id="Grupo_6800" data-name="Grupo 6800" transform="translate(67.987 252.81)">
            <path id="Trazado_3237" data-name="Trazado 3237" d="M525.948,1049.063l-8.6-2.139.308-1.234,8.6,2.138Z" transform="translate(-517.352 -1045.69)" fill="#14294c"/>
          </g>
          <g id="Grupo_6801" data-name="Grupo 6801" transform="translate(559.043 374.958)">
            <path id="Trazado_3238" data-name="Trazado 3238" d="M1976.172,1409.8l-8.6-2.138.308-1.234,8.6,2.137Z" transform="translate(-1967.572 -1406.426)" fill="#14294c"/>
          </g>
          <g id="Grupo_6802" data-name="Grupo 6802" transform="translate(65.986 261.541)">
            <path id="Trazado_3239" data-name="Trazado 3239" d="M520.109,1074.561l-8.666-1.84.266-1.244,8.665,1.841Z" transform="translate(-511.443 -1071.477)" fill="#14294c"/>
          </g>
          <g id="Grupo_6803" data-name="Grupo 6803" transform="translate(561.016 366.514)">
            <path id="Trazado_3240" data-name="Trazado 3240" d="M1982.068,1384.574l-8.668-1.84.265-1.244,8.668,1.84Z" transform="translate(-1973.399 -1381.49)" fill="#14294c"/>
          </g>
          <g id="Grupo_6804" data-name="Grupo 6804" transform="translate(62.908 279.19)">
            <path id="Trazado_3241" data-name="Trazado 3241" d="M511.129,1126.089l-8.775-1.231.178-1.259,8.775,1.231Z" transform="translate(-502.354 -1123.599)" fill="#14294c"/>
          </g>
          <g id="Grupo_6805" data-name="Grupo 6805" transform="translate(564.076 349.458)">
            <path id="Trazado_3242" data-name="Trazado 3242" d="M1991.211,1333.608l-8.776-1.231.177-1.259,8.775,1.231Z" transform="translate(-1982.435 -1331.118)" fill="#14294c"/>
          </g>
          <g id="Grupo_6806" data-name="Grupo 6806" transform="translate(61.836 288.086)">
            <path id="Trazado_3243" data-name="Trazado 3243" d="M508,1152.062l-8.811-.926.133-1.264,8.812.926Z" transform="translate(-499.187 -1149.872)" fill="#14294c"/>
          </g>
          <g id="Grupo_6807" data-name="Grupo 6807" transform="translate(565.154 340.862)">
            <path id="Trazado_3244" data-name="Trazado 3244" d="M1994.432,1307.922l-8.812-.926.134-1.264,8.812.926Z" transform="translate(-1985.62 -1305.732)" fill="#14294c"/>
          </g>
          <g id="Grupo_6808" data-name="Grupo 6808" transform="translate(61.076 297.017)">
            <path id="Trazado_3245" data-name="Trazado 3245" d="M505.78,1178.132l-8.838-.618.089-1.269,8.838.617Z" transform="translate(-496.942 -1176.245)" fill="#14294c"/>
          </g>
          <g id="Grupo_6809" data-name="Grupo 6809" transform="translate(565.934 332.237)">
            <path id="Trazado_3246" data-name="Trazado 3246" d="M1996.762,1282.144l-8.839-.616.088-1.269,8.84.616Z" transform="translate(-1987.922 -1280.26)" fill="#14294c"/>
          </g>
          <g id="Grupo_6810" data-name="Grupo 6810" transform="translate(60.627 305.969)">
            <path id="Trazado_3247" data-name="Trazado 3247" d="M504.47,1204.264l-8.854-.311.045-1.271,8.854.311Z" transform="translate(-495.616 -1202.682)" fill="#14294c"/>
          </g>
          <g id="Grupo_6811" data-name="Grupo 6811" transform="translate(566.409 323.59)">
            <path id="Trazado_3248" data-name="Trazado 3248" d="M1998.18,1256.3l-8.855-.308.045-1.271,8.855.308Z" transform="translate(-1989.325 -1254.724)" fill="#14294c"/>
          </g>
          <g id="Grupo_6812" data-name="Grupo 6812" transform="translate(60.627 323.59)">
            <path id="Trazado_3249" data-name="Trazado 3249" d="M495.66,1256.3l-.044-1.271,8.856-.307.045,1.271Z" transform="translate(-495.616 -1254.724)" fill="#14294c"/>
          </g>
          <g id="Grupo_6813" data-name="Grupo 6813" transform="translate(566.409 305.969)">
            <path id="Trazado_3250" data-name="Trazado 3250" d="M1989.37,1204.262l-.045-1.271,8.857-.308.044,1.271Z" transform="translate(-1989.325 -1202.682)" fill="#14294c"/>
          </g>
          <g id="Grupo_6814" data-name="Grupo 6814" transform="translate(61.075 332.237)">
            <path id="Trazado_3251" data-name="Trazado 3251" d="M497.028,1282.144l-.089-1.269,8.839-.616.089,1.269Z" transform="translate(-496.94 -1280.26)" fill="#14294c"/>
          </g>
          <g id="Grupo_6815" data-name="Grupo 6815" transform="translate(565.931 297.017)">
            <path id="Trazado_3252" data-name="Trazado 3252" d="M1988,1178.13l-.088-1.269,8.842-.616.089,1.269Z" transform="translate(-1987.916 -1176.245)" fill="#14294c"/>
          </g>
          <g id="Grupo_6816" data-name="Grupo 6816" transform="translate(61.837 340.863)">
            <path id="Trazado_3253" data-name="Trazado 3253" d="M499.323,1307.923l-.133-1.265,8.811-.922.133,1.264Z" transform="translate(-499.19 -1305.736)" fill="#14294c"/>
          </g>
          <g id="Grupo_6817" data-name="Grupo 6817" transform="translate(565.154 288.086)">
            <path id="Trazado_3254" data-name="Trazado 3254" d="M1985.754,1152.062l-.134-1.264,8.814-.926.134,1.264Z" transform="translate(-1985.62 -1149.872)" fill="#14294c"/>
          </g>
          <g id="Grupo_6818" data-name="Grupo 6818" transform="translate(62.91 349.459)">
            <path id="Trazado_3255" data-name="Trazado 3255" d="M502.536,1333.611l-.177-1.259,8.774-1.229.177,1.26Z" transform="translate(-502.358 -1331.122)" fill="#14294c"/>
          </g>
          <g id="Grupo_6819" data-name="Grupo 6819" transform="translate(564.074 279.19)">
            <path id="Trazado_3256" data-name="Trazado 3256" d="M1982.607,1126.088l-.178-1.26,8.776-1.229.177,1.259Z" transform="translate(-1982.429 -1123.599)" fill="#14294c"/>
          </g>
          <g id="Grupo_6820" data-name="Grupo 6820" transform="translate(65.986 366.514)">
            <path id="Trazado_3257" data-name="Trazado 3257" d="M511.708,1384.573l-.265-1.244,8.667-1.839.266,1.244Z" transform="translate(-511.443 -1381.49)" fill="#14294c"/>
          </g>
          <g id="Grupo_6821" data-name="Grupo 6821" transform="translate(561.018 261.539)">
            <path id="Trazado_3258" data-name="Trazado 3258" d="M1973.67,1074.553l-.266-1.243,8.668-1.839.266,1.244Z" transform="translate(-1973.404 -1071.47)" fill="#14294c"/>
          </g>
          <g id="Grupo_6822" data-name="Grupo 6822" transform="translate(67.986 374.955)">
            <path id="Trazado_3259" data-name="Trazado 3259" d="M517.658,1409.793l-.308-1.235,8.6-2.139.308,1.235Z" transform="translate(-517.35 -1406.419)" fill="#14294c"/>
          </g>
          <g id="Grupo_6823" data-name="Grupo 6823" transform="translate(559.043 252.81)">
            <path id="Trazado_3260" data-name="Trazado 3260" d="M1967.88,1049.061l-.308-1.234,8.6-2.137.309,1.234Z" transform="translate(-1967.572 -1045.69)" fill="#14294c"/>
          </g>
          <g id="Grupo_6824" data-name="Grupo 6824" transform="translate(70.291 383.324)">
            <path id="Trazado_3261" data-name="Trazado 3261" d="M524.509,1434.791l-.351-1.222,8.517-2.437.352,1.223Z" transform="translate(-524.158 -1431.132)" fill="#14294c"/>
          </g>
          <g id="Grupo_6825" data-name="Grupo 6825" transform="translate(556.778 244.154)">
            <path id="Trazado_3262" data-name="Trazado 3262" d="M1961.235,1023.788l-.351-1.222,8.518-2.438.352,1.222Z" transform="translate(-1960.884 -1020.128)" fill="#14294c"/>
          </g>
          <g id="Grupo_6826" data-name="Grupo 6826" transform="translate(72.898 391.611)">
            <path id="Trazado_3263" data-name="Trazado 3263" d="M532.25,1459.547l-.393-1.209,8.426-2.73.394,1.209Z" transform="translate(-531.857 -1455.608)" fill="#14294c"/>
          </g>
          <g id="Grupo_6827" data-name="Grupo 6827" transform="translate(554.218 235.587)">
            <path id="Trazado_3264" data-name="Trazado 3264" d="M1953.716,998.766l-.394-1.209,8.427-2.731.394,1.209Z" transform="translate(-1953.322 -994.825)" fill="#14294c"/>
          </g>
          <g id="Grupo_6828" data-name="Grupo 6828" transform="translate(79.001 407.893)">
            <path id="Trazado_3265" data-name="Trazado 3265" d="M550.359,1508.184l-.478-1.18,8.216-3.311.478,1.179Z" transform="translate(-549.881 -1503.693)" fill="#14294c"/>
          </g>
          <g id="Grupo_6829" data-name="Grupo 6829" transform="translate(548.241 218.753)">
            <path id="Trazado_3266" data-name="Trazado 3266" d="M1936.149,949.6l-.477-1.179,8.216-3.311.478,1.179Z" transform="translate(-1935.672 -945.111)" fill="#14294c"/>
          </g>
          <g id="Grupo_6830" data-name="Grupo 6830" transform="translate(82.493 415.87)">
            <path id="Trazado_3267" data-name="Trazado 3267" d="M560.711,1532.01l-.519-1.162,8.1-3.6.518,1.161Z" transform="translate(-560.192 -1527.252)" fill="#14294c"/>
          </g>
          <g id="Grupo_6831" data-name="Grupo 6831" transform="translate(544.829 210.51)">
            <path id="Trazado_3268" data-name="Trazado 3268" d="M1926.115,925.523l-.519-1.162,8.1-3.594.518,1.162Z" transform="translate(-1925.596 -920.767)" fill="#14294c"/>
          </g>
          <g id="Grupo_6832" data-name="Grupo 6832" transform="translate(86.27 423.727)">
            <path id="Trazado_3269" data-name="Trazado 3269" d="M571.906,1555.472l-.558-1.143,7.965-3.875.558,1.144Z" transform="translate(-571.348 -1550.454)" fill="#14294c"/>
          </g>
          <g id="Grupo_6833" data-name="Grupo 6833" transform="translate(541.143 202.391)">
            <path id="Trazado_3270" data-name="Trazado 3270" d="M1915.27,901.81l-.559-1.143,7.965-3.876.559,1.143Z" transform="translate(-1914.71 -896.79)" fill="#14294c"/>
          </g>
          <g id="Grupo_6834" data-name="Grupo 6834" transform="translate(90.332 431.452)">
            <path id="Trazado_3271" data-name="Trazado 3271" d="M583.943,1578.539l-.6-1.123,7.823-4.148.6,1.123Z" transform="translate(-583.344 -1573.268)" fill="#14294c"/>
          </g>
          <g id="Grupo_6835" data-name="Grupo 6835" transform="translate(537.184 194.413)">
            <path id="Trazado_3272" data-name="Trazado 3272" d="M1903.614,878.5l-.6-1.123,7.822-4.151.6,1.124Z" transform="translate(-1903.016 -873.229)" fill="#14294c"/>
          </g>
          <g id="Grupo_6836" data-name="Grupo 6836" transform="translate(99.278 446.466)">
            <path id="Trazado_3273" data-name="Trazado 3273" d="M610.439,1623.37l-.675-1.078,7.515-4.684.675,1.078Z" transform="translate(-609.764 -1617.608)" fill="#14294c"/>
          </g>
          <g id="Grupo_6837" data-name="Grupo 6837" transform="translate(528.468 178.906)">
            <path id="Trazado_3274" data-name="Trazado 3274" d="M1877.951,833.2l-.675-1.079,7.515-4.686.676,1.079Z" transform="translate(-1877.276 -827.433)" fill="#14294c"/>
          </g>
          <g id="Grupo_6838" data-name="Grupo 6838" transform="translate(104.155 453.74)">
            <path id="Trazado_3275" data-name="Trazado 3275" d="M624.878,1645.086l-.713-1.054,7.346-4.941.713,1.054Z" transform="translate(-624.166 -1639.09)" fill="#14294c"/>
          </g>
          <g id="Grupo_6839" data-name="Grupo 6839" transform="translate(523.721 171.401)">
            <path id="Trazado_3276" data-name="Trazado 3276" d="M1863.969,811.267l-.713-1.054,7.349-4.944.713,1.054Z" transform="translate(-1863.256 -805.269)" fill="#14294c"/>
          </g>
          <g id="Grupo_6840" data-name="Grupo 6840" transform="translate(109.291 460.843)">
            <path id="Trazado_3277" data-name="Trazado 3277" d="M640.084,1666.292l-.749-1.028,7.169-5.2.749,1.028Z" transform="translate(-639.335 -1660.067)" fill="#14294c"/>
          </g>
          <g id="Grupo_6841" data-name="Grupo 6841" transform="translate(518.727 164.068)">
            <path id="Trazado_3278" data-name="Trazado 3278" d="M1849.258,789.84l-.749-1.029,7.169-5.2.75,1.029Z" transform="translate(-1848.509 -783.612)" fill="#14294c"/>
          </g>
          <g id="Grupo_6842" data-name="Grupo 6842" transform="translate(114.682 467.77)">
            <path id="Trazado_3279" data-name="Trazado 3279" d="M656.041,1686.97l-.785-1,6.983-5.441.784,1Z" transform="translate(-655.256 -1680.526)" fill="#14294c"/>
          </g>
          <g id="Grupo_6843" data-name="Grupo 6843" transform="translate(513.487 156.923)">
            <path id="Trazado_3280" data-name="Trazado 3280" d="M1833.819,768.953l-.785-1,6.981-5.441.785,1Z" transform="translate(-1833.034 -762.51)" fill="#14294c"/>
          </g>
          <g id="Grupo_6844" data-name="Grupo 6844" transform="translate(126.199 481.06)">
            <path id="Trazado_3281" data-name="Trazado 3281" d="M690.122,1726.634l-.853-.945,6.585-5.916.853.945Z" transform="translate(-689.269 -1719.773)" fill="#14294c"/>
          </g>
          <g id="Grupo_6845" data-name="Grupo 6845" transform="translate(502.299 143.213)">
            <path id="Trazado_3282" data-name="Trazado 3282" d="M1800.844,728.884l-.853-.945,6.584-5.917.853.946Z" transform="translate(-1799.991 -722.022)" fill="#14294c"/>
          </g>
          <g id="Grupo_6846" data-name="Grupo 6846" transform="translate(132.313 487.408)">
            <path id="Trazado_3283" data-name="Trazado 3283" d="M708.209,1745.577l-.885-.915,6.375-6.14.885.914Z" transform="translate(-707.324 -1738.522)" fill="#14294c"/>
          </g>
          <g id="Grupo_6847" data-name="Grupo 6847" transform="translate(496.362 136.672)">
            <path id="Trazado_3284" data-name="Trazado 3284" d="M1783.342,709.76l-.885-.915,6.378-6.142.885.914Z" transform="translate(-1782.458 -702.704)" fill="#14294c"/>
          </g>
          <g id="Grupo_6848" data-name="Grupo 6848" transform="translate(138.652 493.544)">
            <path id="Trazado_3285" data-name="Trazado 3285" d="M726.962,1763.885l-.917-.884,6.155-6.359.917.884Z" transform="translate(-726.045 -1756.642)" fill="#14294c"/>
          </g>
          <g id="Grupo_6849" data-name="Grupo 6849" transform="translate(490.213 130.348)">
            <path id="Trazado_3286" data-name="Trazado 3286" d="M1765.214,691.271l-.917-.884,6.157-6.361.917.884Z" transform="translate(-1764.298 -684.027)" fill="#14294c"/>
          </g>
          <g id="Grupo_6850" data-name="Grupo 6850" transform="translate(145.21 499.465)">
            <path id="Trazado_3287" data-name="Trazado 3287" d="M746.36,1781.55l-.948-.851,5.93-6.569.947.851Z" transform="translate(-745.412 -1774.129)" fill="#14294c"/>
          </g>
          <g id="Grupo_6851" data-name="Grupo 6851" transform="translate(483.85 124.251)">
            <path id="Trazado_3288" data-name="Trazado 3288" d="M1746.456,673.441l-.947-.851,5.929-6.567.947.85Z" transform="translate(-1745.509 -666.023)" fill="#14294c"/>
          </g>
          <g id="Grupo_6852" data-name="Grupo 6852" transform="translate(158.947 510.626)">
            <path id="Trazado_3289" data-name="Trazado 3289" d="M786.987,1814.841l-1-.782,5.457-6.967,1,.782Z" transform="translate(-785.983 -1807.092)" fill="#14294c"/>
          </g>
          <g id="Grupo_6853" data-name="Grupo 6853" transform="translate(470.529 112.757)">
            <path id="Trazado_3290" data-name="Trazado 3290" d="M1707.171,639.825l-1-.783,5.455-6.967,1,.783Z" transform="translate(-1706.167 -632.076)" fill="#14294c"/>
          </g>
          <g id="Grupo_6854" data-name="Grupo 6854" transform="translate(166.112 515.856)">
            <path id="Trazado_3291" data-name="Trazado 3291" d="M808.174,1830.435l-1.031-.748,5.209-7.151,1.031.748Z" transform="translate(-807.142 -1822.536)" fill="#14294c"/>
          </g>
          <g id="Grupo_6855" data-name="Grupo 6855" transform="translate(463.582 107.38)">
            <path id="Trazado_3292" data-name="Trazado 3292" d="M1686.681,624.1l-1.031-.747,5.212-7.154,1.031.748Z" transform="translate(-1685.649 -616.196)" fill="#14294c"/>
          </g>
          <g id="Grupo_6856" data-name="Grupo 6856" transform="translate(173.461 520.839)">
            <path id="Trazado_3293" data-name="Trazado 3293" d="M829.9,1845.291l-1.057-.711,4.956-7.328,1.057.711Z" transform="translate(-828.845 -1837.252)" fill="#14294c"/>
          </g>
          <g id="Grupo_6857" data-name="Grupo 6857" transform="translate(456.464 102.254)">
            <path id="Trazado_3294" data-name="Trazado 3294" d="M1665.686,609.1l-1.057-.711,4.955-7.332,1.057.711Z" transform="translate(-1664.628 -601.06)" fill="#14294c"/>
          </g>
          <g id="Grupo_6858" data-name="Grupo 6858" transform="translate(180.986 525.573)">
            <path id="Trazado_3295" data-name="Trazado 3295" d="M852.15,1859.4l-1.081-.674,4.7-7.5,1.081.674Z" transform="translate(-851.069 -1851.231)" fill="#14294c"/>
          </g>
          <g id="Grupo_6859" data-name="Grupo 6859" transform="translate(449.172 97.393)">
            <path id="Trazado_3296" data-name="Trazado 3296" d="M1644.175,594.871l-1.08-.674,4.7-7.495,1.081.674Z" transform="translate(-1643.095 -586.702)" fill="#14294c"/>
          </g>
          <g id="Grupo_6860" data-name="Grupo 6860" transform="translate(196.526 534.265)">
            <path id="Trazado_3297" data-name="Trazado 3297" d="M898.09,1885.308l-1.126-.6,4.161-7.807,1.126.6Z" transform="translate(-896.964 -1876.904)" fill="#14294c"/>
          </g>
          <g id="Grupo_6861" data-name="Grupo 6861" transform="translate(434.122 88.463)">
            <path id="Trazado_3298" data-name="Trazado 3298" d="M1599.773,568.735l-1.126-.6,4.16-7.807,1.126.6Z" transform="translate(-1598.647 -560.331)" fill="#14294c"/>
          </g>
          <g id="Grupo_6862" data-name="Grupo 6862" transform="translate(204.525 538.217)">
            <path id="Trazado_3299" data-name="Trazado 3299" d="M921.733,1897.077l-1.146-.558,3.885-7.945,1.146.558Z" transform="translate(-920.587 -1888.574)" fill="#14294c"/>
          </g>
          <g id="Grupo_6863" data-name="Grupo 6863" transform="translate(426.379 84.412)">
            <path id="Trazado_3300" data-name="Trazado 3300" d="M1576.924,556.874l-1.145-.558,3.887-7.949,1.145.558Z" transform="translate(-1575.779 -548.368)" fill="#14294c"/>
          </g>
          <g id="Grupo_6864" data-name="Grupo 6864" transform="translate(212.661 541.896)">
            <path id="Trazado_3301" data-name="Trazado 3301" d="M945.778,1908.033l-1.164-.518,3.6-8.075,1.165.518Z" transform="translate(-944.614 -1899.44)" fill="#14294c"/>
          </g>
          <g id="Grupo_6865" data-name="Grupo 6865" transform="translate(418.508 80.643)">
            <path id="Trazado_3302" data-name="Trazado 3302" d="M1553.7,545.831l-1.165-.518,3.6-8.078,1.165.518Z" transform="translate(-1552.535 -537.236)" fill="#14294c"/>
          </g>
          <g id="Grupo_6866" data-name="Grupo 6866" transform="translate(220.926 545.3)">
            <path id="Trazado_3303" data-name="Trazado 3303" d="M970.2,1918.164l-1.182-.476,3.319-8.2,1.182.477Z" transform="translate(-969.021 -1909.492)" fill="#14294c"/>
          </g>
          <g id="Grupo_6867" data-name="Grupo 6867" transform="translate(410.508 77.164)">
            <path id="Trazado_3304" data-name="Trazado 3304" d="M1530.092,535.631l-1.182-.477,3.32-8.193,1.182.477Z" transform="translate(-1528.91 -526.962)" fill="#14294c"/>
          </g>
          <g id="Grupo_6868" data-name="Grupo 6868" transform="translate(237.796 551.261)">
            <path id="Trazado_3305" data-name="Trazado 3305" d="M1020.056,1935.9l-1.212-.393,2.74-8.409,1.212.393Z" transform="translate(-1018.844 -1927.096)" fill="#14294c"/>
          </g>
          <g id="Grupo_6869" data-name="Grupo 6869" transform="translate(394.187 71.069)">
            <path id="Trazado_3306" data-name="Trazado 3306" d="M1481.921,517.765l-1.212-.393,2.739-8.409,1.212.394Z" transform="translate(-1480.708 -508.962)" fill="#14294c"/>
          </g>
          <g id="Grupo_6870" data-name="Grupo 6870" transform="translate(246.385 553.816)">
            <path id="Trazado_3307" data-name="Trazado 3307" d="M1045.436,1943.489l-1.226-.351,2.443-8.5,1.225.35Z" transform="translate(-1044.21 -1934.641)" fill="#14294c"/>
          </g>
          <g id="Grupo_6871" data-name="Grupo 6871" transform="translate(385.881 68.471)">
            <path id="Trazado_3308" data-name="Trazado 3308" d="M1457.4,510.138l-1.225-.351,2.444-8.5,1.225.35Z" transform="translate(-1456.18 -501.287)" fill="#14294c"/>
          </g>
          <g id="Grupo_6872" data-name="Grupo 6872" transform="translate(255.06 556.076)">
            <path id="Trazado_3309" data-name="Trazado 3309" d="M1071.066,1950.2l-1.237-.308,2.144-8.578,1.237.308Z" transform="translate(-1069.829 -1941.317)" fill="#14294c"/>
          </g>
          <g id="Grupo_6873" data-name="Grupo 6873" transform="translate(377.495 66.171)">
            <path id="Trazado_3310" data-name="Trazado 3310" d="M1432.65,503.382l-1.237-.308,2.144-8.58,1.238.307Z" transform="translate(-1431.414 -494.494)" fill="#14294c"/>
          </g>
          <g id="Grupo_6874" data-name="Grupo 6874" transform="translate(263.812 558.045)">
            <path id="Trazado_3311" data-name="Trazado 3311" d="M1096.924,1956.042l-1.247-.265,1.843-8.646,1.247.265Z" transform="translate(-1095.677 -1947.132)" fill="#14294c"/>
          </g>
          <g id="Grupo_6875" data-name="Grupo 6875" transform="translate(369.032 64.179)">
            <path id="Trazado_3312" data-name="Trazado 3312" d="M1407.666,497.521l-1.247-.264,1.845-8.644,1.247.265Z" transform="translate(-1406.419 -488.612)" fill="#14294c"/>
          </g>
          <g id="Grupo_6876" data-name="Grupo 6876" transform="translate(281.502 561.094)">
            <path id="Trazado_3313" data-name="Trazado 3313" d="M1149.18,1965.068l-1.261-.177,1.234-8.757,1.263.177Z" transform="translate(-1147.919 -1956.135)" fill="#14294c"/>
          </g>
          <g id="Grupo_6877" data-name="Grupo 6877" transform="translate(351.936 61.106)">
            <path id="Trazado_3314" data-name="Trazado 3314" d="M1357.193,488.47l-1.263-.177,1.233-8.756,1.262.176Z" transform="translate(-1355.93 -479.536)" fill="#14294c"/>
          </g>
          <g id="Grupo_6878" data-name="Grupo 6878" transform="translate(290.42 562.172)">
            <path id="Trazado_3315" data-name="Trazado 3315" d="M1175.525,1968.245l-1.267-.133.927-8.793,1.267.133Z" transform="translate(-1174.257 -1959.319)" fill="#14294c"/>
          </g>
          <g id="Grupo_6879" data-name="Grupo 6879" transform="translate(343.319 60.035)">
            <path id="Trazado_3316" data-name="Trazado 3316" d="M1331.75,485.3l-1.267-.133.928-8.8,1.267.133Z" transform="translate(-1330.482 -476.374)" fill="#14294c"/>
          </g>
          <g id="Grupo_6880" data-name="Grupo 6880" transform="translate(299.371 562.949)">
            <path id="Trazado_3317" data-name="Trazado 3317" d="M1201.964,1970.522l-1.272-.089.618-8.819,1.272.089Z" transform="translate(-1200.692 -1961.615)" fill="#14294c"/>
          </g>
          <g id="Grupo_6881" data-name="Grupo 6881" transform="translate(334.674 59.275)">
            <path id="Trazado_3318" data-name="Trazado 3318" d="M1306.223,483.037l-1.272-.089.618-8.82,1.272.089Z" transform="translate(-1304.951 -474.129)" fill="#14294c"/>
          </g>
          <g id="Grupo_6882" data-name="Grupo 6882" transform="translate(308.345 563.426)">
            <path id="Trazado_3319" data-name="Trazado 3319" d="M1228.468,1971.9l-1.274-.044.311-8.832,1.274.044Z" transform="translate(-1227.193 -1963.022)" fill="#14294c"/>
          </g>
          <g id="Grupo_6883" data-name="Grupo 6883" transform="translate(326.005 58.83)">
            <path id="Trazado_3320" data-name="Trazado 3320" d="M1280.623,481.7l-1.274-.045.311-8.834,1.274.045Z" transform="translate(-1279.349 -472.816)" fill="#14294c"/>
          </g>
          <g id="Grupo_6884" data-name="Grupo 6884" transform="translate(39.868 38.123)">
            <path id="Trazado_3321" data-name="Trazado 3321" d="M712.41,414.633A274.575,274.575,0,1,0,819.5,436.2,273.95,273.95,0,0,0,712.41,414.633Zm0,551.923a277.566,277.566,0,1,1,108.25-21.8A276.924,276.924,0,0,1,712.41,966.557Z" transform="translate(-434.31 -411.662)" fill="#14294c"/>
          </g>
          <g id="Grupo_6885" data-name="Grupo 6885" transform="translate(148.277 146.278)">
            <path id="Trazado_3322" data-name="Trazado 3322" d="M928.724,735.2h-.055c-1.5-.04-3.012-.06-4.507-.06h-.314a2.034,2.034,0,1,1-.007-4.069h.328c1.524,0,3.077.021,4.609.062a2.034,2.034,0,0,1-.053,4.068Zm-19.488.593a2.034,2.034,0,0,1-.177-4.06c1.635-.144,3.291-.266,4.922-.362a2.034,2.034,0,1,1,.24,4.061c-1.592.095-3.208.213-4.8.353Zm34.075.425a1.906,1.906,0,0,1-.233-.013c-1.592-.18-3.2-.34-4.793-.473a2.034,2.034,0,1,1,.343-4.054c1.627.138,3.279.3,4.911.485a2.034,2.034,0,0,1-.228,4.055Zm-48.57,1.488a2.034,2.034,0,0,1-.352-4.037c1.607-.284,3.246-.549,4.871-.788a2.035,2.035,0,1,1,.594,4.025c-1.586.233-3.186.492-4.754.769A2.088,2.088,0,0,1,894.741,737.707Zm63.01.791a2.071,2.071,0,0,1-.409-.041c-1.565-.317-3.157-.617-4.732-.888a2.034,2.034,0,1,1,.695-4.009c1.614.279,3.247.585,4.85.911a2.034,2.034,0,0,1-.4,4.028Zm-77.281,2.379a2.034,2.034,0,0,1-.529-4c1.586-.427,3.2-.833,4.785-1.21a2.034,2.034,0,1,1,.943,3.958c-1.55.368-3.121.765-4.668,1.18A2.022,2.022,0,0,1,880.471,740.877Zm91.467,1.153a2.034,2.034,0,0,1-.58-.084c-1.532-.453-3.092-.891-4.638-1.3a2.035,2.035,0,1,1,1.046-3.932c1.583.419,3.182.867,4.751,1.331a2.034,2.034,0,0,1-.579,3.984Zm-105.4,3.255a2.034,2.034,0,0,1-.7-3.945c1.535-.56,3.1-1.107,4.658-1.625a2.035,2.035,0,1,1,1.29,3.859c-1.52.506-3.049,1.039-4.547,1.586A2.03,2.03,0,0,1,866.533,745.285ZM985.772,746.8a2.045,2.045,0,0,1-.75-.143c-1.488-.587-3.008-1.161-4.517-1.705a2.035,2.035,0,1,1,1.386-3.827c1.547.559,3.105,1.147,4.631,1.748a2.034,2.034,0,0,1-.751,3.926Zm-132.705,4.084A2.034,2.034,0,0,1,852.2,747c1.48-.692,2.99-1.372,4.486-2.019a2.035,2.035,0,1,1,1.623,3.733c-1.459.631-2.932,1.295-4.377,1.971A2.043,2.043,0,0,1,853.067,750.881Zm146.077,1.881a2.044,2.044,0,0,1-.912-.216c-1.43-.716-2.892-1.419-4.346-2.093a2.035,2.035,0,1,1,1.719-3.69c1.49.69,2.989,1.413,4.454,2.145a2.034,2.034,0,0,1-.914,3.854Zm-159.011,4.874a2.034,2.034,0,0,1-1.025-3.795c1.416-.819,2.86-1.628,4.295-2.4a2.035,2.035,0,1,1,1.943,3.576c-1.4.758-2.81,1.547-4.191,2.346A2.032,2.032,0,0,1,840.133,757.636Zm171.8,2.233a2.031,2.031,0,0,1-1.067-.3c-1.369-.84-2.763-1.669-4.145-2.463a2.036,2.036,0,1,1,2.036-3.525c1.416.814,2.844,1.663,4.246,2.524a2.034,2.034,0,0,1-1.071,3.767Zm-184.1,5.623a2.034,2.034,0,0,1-1.175-3.7c1.336-.937,2.706-1.87,4.072-2.771a2.036,2.036,0,1,1,2.249,3.4c-1.334.879-2.671,1.788-3.975,2.7A2.034,2.034,0,0,1,827.831,765.492Zm196.22,2.566a2.037,2.037,0,0,1-1.214-.4c-1.281-.95-2.6-1.9-3.911-2.812a2.036,2.036,0,1,1,2.336-3.335c1.345.939,2.694,1.909,4.007,2.882a2.034,2.034,0,0,1-1.218,3.667Zm-207.8,6.332a2.034,2.034,0,0,1-1.314-3.591c1.247-1.048,2.532-2.1,3.818-3.113a2.036,2.036,0,1,1,2.535,3.187c-1.255.993-2.509,2.017-3.727,3.039A2.033,2.033,0,0,1,816.252,774.39Zm219.152,2.873a2.031,2.031,0,0,1-1.353-.512c-1.2-1.061-2.425-2.117-3.649-3.139a2.036,2.036,0,1,1,2.617-3.119c1.254,1.047,2.512,2.129,3.74,3.215a2.034,2.034,0,0,1-1.354,3.556Zm-229.919,7a2.034,2.034,0,0,1-1.443-3.471c1.154-1.154,2.344-2.309,3.535-3.433a2.037,2.037,0,1,1,2.8,2.955c-1.163,1.1-2.324,2.225-3.451,3.352A2.036,2.036,0,0,1,805.484,784.258Zm240.426,3.153a2.036,2.036,0,0,1-1.481-.635c-1.1-1.16-2.232-2.317-3.362-3.441a2.036,2.036,0,0,1,2.879-2.881c1.158,1.15,2.317,2.337,3.444,3.524a2.034,2.034,0,0,1-1.48,3.433Zm-250.3,7.613a2.035,2.035,0,0,1-1.561-3.341c1.054-1.255,2.139-2.509,3.225-3.728a2.037,2.037,0,0,1,3.048,2.7c-1.06,1.191-2.12,2.415-3.148,3.64A2.035,2.035,0,0,1,795.611,795.024Zm259.882,3.4a2.037,2.037,0,0,1-1.6-.769c-.992-1.244-2.017-2.494-3.049-3.716a2.037,2.037,0,0,1,3.119-2.622c1.057,1.25,2.107,2.531,3.123,3.807a2.035,2.035,0,0,1-1.594,3.3Zm-268.786,8.184a2.035,2.035,0,0,1-1.669-3.2c.937-1.334,1.908-2.678,2.891-4a2.037,2.037,0,0,1,3.272,2.427c-.958,1.286-1.908,2.6-2.821,3.9A2.04,2.04,0,0,1,786.708,806.609Zm277.371,3.611a2.04,2.04,0,0,1-1.7-.912c-.882-1.33-1.8-2.664-2.712-3.963A2.037,2.037,0,0,1,1063,803c.94,1.331,1.875,2.7,2.779,4.06a2.035,2.035,0,0,1-1.7,3.157Zm-285.233,8.706a2.036,2.036,0,0,1-1.764-3.051c.821-1.421,1.673-2.845,2.533-4.235a2.038,2.038,0,0,1,3.471,2.136c-.838,1.356-1.67,2.747-2.471,4.133A2.041,2.041,0,0,1,778.845,818.927Zm292.754,3.782a2.039,2.039,0,0,1-1.794-1.063c-.762-1.4-1.554-2.808-2.354-4.18a2.038,2.038,0,0,1,3.526-2.044c.819,1.406,1.631,2.847,2.412,4.283a2.035,2.035,0,0,1-1.79,3Zm-299.51,9.18A2.036,2.036,0,0,1,770.242,829c.7-1.491,1.42-2.986,2.153-4.442a2.038,2.038,0,0,1,3.644,1.825c-.715,1.421-1.422,2.879-2.1,4.334A2.039,2.039,0,0,1,772.089,831.888ZM1078,835.8a2.039,2.039,0,0,1-1.871-1.224c-.635-1.459-1.3-2.928-1.978-4.365a2.038,2.038,0,0,1,3.691-1.73c.694,1.473,1.375,2.979,2.027,4.474A2.037,2.037,0,0,1,1078,835.8Zm-311.5,9.6a2.039,2.039,0,0,1-1.917-2.728c.558-1.538,1.149-3.091,1.755-4.618a2.038,2.038,0,0,1,3.791,1.5c-.591,1.49-1.167,3.006-1.713,4.506A2.04,2.04,0,0,1,766.5,845.4Zm316.726,4a2.04,2.04,0,0,1-1.934-1.39c-.506-1.511-1.041-3.037-1.592-4.535a2.039,2.039,0,0,1,3.829-1.4c.564,1.535,1.113,3.1,1.631,4.647a2.039,2.039,0,0,1-1.934,2.679Zm-321.1,9.918a2.038,2.038,0,0,1-1.972-2.557c.419-1.575.87-3.17,1.337-4.74a2.039,2.039,0,0,1,3.909,1.16c-.457,1.531-.9,3.087-1.3,4.624A2.04,2.04,0,0,1,762.124,859.319Zm325.112,4.109a2.038,2.038,0,0,1-1.982-1.563c-.369-1.544-.769-3.11-1.186-4.656a2.038,2.038,0,0,1,3.937-1.06c.428,1.584.837,3.189,1.216,4.772a2.034,2.034,0,0,1-1.511,2.451A2.081,2.081,0,0,1,1087.236,863.428Zm-328.244,10.14a2.083,2.083,0,0,1-.351-.031,2.034,2.034,0,0,1-1.66-2.352c.28-1.607.588-3.235.916-4.838a2.039,2.039,0,0,1,4,.812c-.32,1.565-.621,3.154-.894,4.722A2.038,2.038,0,0,1,758.993,873.568ZM1090,877.751a2.038,2.038,0,0,1-2.015-1.737c-.233-1.577-.494-3.173-.773-4.742a2.039,2.039,0,0,1,4.015-.712c.287,1.608.553,3.243.792,4.859a2.042,2.042,0,0,1-2.02,2.332ZM757.121,888.035l-.175-.007a2.037,2.037,0,0,1-1.859-2.2c.139-1.624.3-3.272.489-4.9a2.039,2.039,0,0,1,4.052.462c-.182,1.588-.343,3.2-.478,4.782A2.036,2.036,0,0,1,757.121,888.035Zm334.387,4.225a2.037,2.037,0,0,1-2.034-1.913c-.1-1.6-.216-3.209-.357-4.792a2.039,2.039,0,0,1,4.062-.36c.144,1.622.267,3.273.365,4.909a2.036,2.036,0,0,1-1.914,2.152Zm-335,10.349a2.037,2.037,0,0,1-2.04-2.034v-.2c0-1.57.022-3.153.064-4.72a2.059,2.059,0,0,1,2.094-1.978,2.037,2.037,0,0,1,1.983,2.089c-.042,1.529-.062,3.075-.062,4.6v.21A2.037,2.037,0,0,1,756.51,902.609Zm335.236,4.653h-.06a2.037,2.037,0,0,1-1.98-2.091c.045-1.594.068-3.21.068-4.806v-.41a2.039,2.039,0,0,1,4.078-.011v.416c0,1.64-.024,3.3-.07,4.926A2.037,2.037,0,0,1,1091.745,907.262Zm-334.592,9.922a2.037,2.037,0,0,1-2.029-1.856c-.142-1.627-.264-3.279-.36-4.91a2.039,2.039,0,0,1,4.071-.238c.094,1.593.212,3.2.352,4.793a2.036,2.036,0,0,1-1.854,2.2Zm333.546,4.627a2.112,2.112,0,0,1-.237-.013,2.037,2.037,0,0,1-1.792-2.255c.184-1.582.346-3.19.484-4.78a2.039,2.039,0,0,1,4.063.35c-.141,1.629-.307,3.277-.495,4.9A2.038,2.038,0,0,1,1090.7,921.811Zm-331.638,9.835a2.037,2.037,0,0,1-2.005-1.681c-.283-1.6-.548-3.235-.786-4.859a2.039,2.039,0,0,1,4.034-.59c.233,1.585.491,3.182.768,4.744a2.035,2.035,0,0,1-1.653,2.357A2.181,2.181,0,0,1,759.061,931.646Zm329.327,4.569a2.056,2.056,0,0,1-.412-.042,2.034,2.034,0,0,1-1.587-2.4c.321-1.561.623-3.149.9-4.72a2.039,2.039,0,0,1,4.017.7c-.282,1.611-.592,3.238-.922,4.837A2.037,2.037,0,0,1,1088.387,936.215ZM762.23,945.887a2.038,2.038,0,0,1-1.968-1.507c-.425-1.578-.832-3.184-1.21-4.774a2.039,2.039,0,0,1,3.968-.94c.369,1.552.766,3.119,1.18,4.658a2.034,2.034,0,0,1-1.441,2.492A2.068,2.068,0,0,1,762.23,945.887Zm322.589,4.475a2.072,2.072,0,0,1-.585-.085,2.034,2.034,0,0,1-1.369-2.532c.457-1.523.9-3.078,1.311-4.623a2.039,2.039,0,0,1,3.94,1.05c-.424,1.584-.876,3.178-1.344,4.739A2.039,2.039,0,0,1,1084.819,950.362ZM766.641,959.8a2.04,2.04,0,0,1-1.915-1.337c-.564-1.538-1.11-3.1-1.626-4.649a2.039,2.039,0,0,1,3.871-1.284c.5,1.509,1.036,3.036,1.585,4.536a2.038,2.038,0,0,1-1.914,2.734Zm313.373,4.361a2.038,2.038,0,0,1-1.894-2.786c.592-1.486,1.171-3,1.719-4.5a2.039,2.039,0,0,1,3.833,1.39c-.562,1.541-1.155,3.094-1.762,4.617A2.039,2.039,0,0,1,1080.014,964.156Zm-307.771,9.078a2.04,2.04,0,0,1-1.848-1.172c-.692-1.474-1.372-2.979-2.021-4.475a2.038,2.038,0,0,1,3.742-1.617c.634,1.46,1.3,2.929,1.973,4.368a2.036,2.036,0,0,1-1.845,2.9Zm301.765,4.251a2.036,2.036,0,0,1-1.819-2.949c.717-1.421,1.426-2.878,2.107-4.332a2.038,2.038,0,0,1,3.695,1.722c-.7,1.489-1.424,2.983-2.159,4.44A2.04,2.04,0,0,1,1074.009,977.486Zm-295,8.658a2.038,2.038,0,0,1-1.766-1.015c-.821-1.413-1.631-2.854-2.407-4.286a2.038,2.038,0,0,1,3.586-1.937c.758,1.4,1.549,2.805,2.349,4.183a2.037,2.037,0,0,1-1.762,3.055Zm287.855,4.09a2.036,2.036,0,0,1-1.733-3.105c.842-1.357,1.675-2.747,2.477-4.129a2.038,2.038,0,0,1,3.53,2.038c-.822,1.416-1.675,2.839-2.538,4.231A2.038,2.038,0,0,1,1066.861,990.234Zm-279.987,8.187a2.037,2.037,0,0,1-1.67-.865c-.942-1.339-1.875-2.705-2.774-4.064a2.038,2.038,0,0,1,3.4-2.241c.877,1.326,1.788,2.661,2.707,3.967a2.035,2.035,0,0,1-1.667,3.2Zm271.757,3.885a2.035,2.035,0,0,1-1.633-3.25c.958-1.282,1.909-2.593,2.826-3.9a2.038,2.038,0,0,1,3.339,2.337c-.94,1.337-1.914,2.68-2.9,3.993A2.037,2.037,0,0,1,1058.631,1002.306Zm-262.847,7.671a2.034,2.034,0,0,1-1.561-.725c-1.053-1.249-2.1-2.531-3.119-3.81a2.037,2.037,0,0,1,3.2-2.527c.993,1.249,2.016,2.5,3.044,3.719a2.034,2.034,0,0,1-1.559,3.343Zm253.6,3.637a2.035,2.035,0,0,1-1.521-3.388c1.061-1.188,2.122-2.412,3.153-3.635a2.037,2.037,0,0,1,3.122,2.617c-1.056,1.253-2.142,2.506-3.23,3.725A2.037,2.037,0,0,1,1049.383,1013.615Zm-243.715,7.11a2.034,2.034,0,0,1-1.441-.6c-1.16-1.156-2.318-2.343-3.439-3.528a2.037,2.037,0,1,1,2.964-2.794c1.1,1.156,2.225,2.315,3.357,3.444a2.035,2.035,0,0,1-1.442,3.474Zm233.526,3.352a2.034,2.034,0,0,1-1.4-3.514c1.16-1.092,2.322-2.218,3.454-3.347a2.037,2.037,0,1,1,2.883,2.877c-1.159,1.157-2.351,2.31-3.539,3.429A2.035,2.035,0,0,1,1039.194,1024.076Zm-222.741,6.5a2.033,2.033,0,0,1-1.31-.476c-1.257-1.052-2.514-2.136-3.735-3.221a2.036,2.036,0,1,1,2.71-3.039c1.193,1.058,2.419,2.115,3.646,3.143a2.034,2.034,0,0,1-1.312,3.592Zm211.685,3.036a2.034,2.034,0,0,1-1.267-3.629c1.255-.992,2.51-2.013,3.731-3.036a2.036,2.036,0,1,1,2.622,3.115c-1.25,1.049-2.536,2.094-3.821,3.109A2.035,2.035,0,0,1,1028.138,1033.615Zm-200.08,5.854a2.035,2.035,0,0,1-1.168-.369c-1.344-.94-2.691-1.911-4-2.886a2.036,2.036,0,1,1,2.436-3.263c1.281.953,2.6,1.9,3.907,2.818a2.034,2.034,0,0,1-1.171,3.7Zm188.241,2.689a2.034,2.034,0,0,1-1.123-3.733c1.328-.873,2.667-1.781,3.977-2.7a2.035,2.035,0,1,1,2.342,3.33c-1.343.94-2.714,1.87-4.076,2.765A2.028,2.028,0,0,1,1016.3,1042.158Zm-175.9,5.163a2.042,2.042,0,0,1-1.019-.273c-1.424-.821-2.851-1.672-4.243-2.53a2.036,2.036,0,1,1,2.143-3.462c1.357.837,2.751,1.667,4.14,2.468a2.034,2.034,0,0,1-1.022,3.8Zm163.368,2.317a2.034,2.034,0,0,1-.972-3.824c1.4-.757,2.814-1.544,4.2-2.341a2.035,2.035,0,1,1,2.042,3.521c-1.415.817-2.861,1.624-4.3,2.4A2.031,2.031,0,0,1,1003.767,1049.638Zm-150.379,4.431a2.024,2.024,0,0,1-.86-.191c-1.487-.692-2.984-1.415-4.452-2.15a2.035,2.035,0,1,1,1.832-3.635c1.431.718,2.893,1.424,4.343,2.1a2.034,2.034,0,0,1-.863,3.879ZM990.637,1056a2.034,2.034,0,0,1-.811-3.9c1.467-.633,2.941-1.294,4.379-1.965a2.035,2.035,0,1,1,1.727,3.686c-1.474.687-2.984,1.365-4.487,2.014A2.048,2.048,0,0,1,990.637,1056Zm-123.708,3.663a2.052,2.052,0,0,1-.7-.123c-1.548-.561-3.105-1.152-4.628-1.754a2.035,2.035,0,1,1,1.5-3.781c1.486.588,3.005,1.164,4.516,1.711a2.034,2.034,0,0,1-.7,3.947Zm110.06,1.527a2.034,2.034,0,0,1-.642-3.966c1.516-.5,3.046-1.034,4.548-1.579a2.035,2.035,0,1,1,1.4,3.822c-1.538.56-3.107,1.1-4.661,1.619A2.032,2.032,0,0,1,976.989,1061.186Zm-96.109,2.845a2.031,2.031,0,0,1-.526-.069c-1.573-.419-3.171-.868-4.75-1.337a2.035,2.035,0,1,1,1.165-3.9c1.541.458,3.1.9,4.635,1.305a2.034,2.034,0,0,1-.523,4Zm82.04,1.134a2.034,2.034,0,0,1-.468-4.014c1.559-.369,3.131-.764,4.67-1.175a2.034,2.034,0,1,1,1.054,3.929c-1.577.422-3.187.826-4.786,1.2A2.051,2.051,0,0,1,962.92,1065.165Zm-67.758,2a2.094,2.094,0,0,1-.353-.03c-1.618-.282-3.249-.59-4.848-.917a2.034,2.034,0,1,1,.817-3.985c1.562.318,3.154.62,4.732.894a2.034,2.034,0,0,1-.348,4.039Zm53.4.736a2.034,2.034,0,0,1-.292-4.047c1.577-.23,3.177-.486,4.755-.762a2.034,2.034,0,1,1,.706,4.006c-1.617.284-3.256.547-4.873.782A2.112,2.112,0,0,1,948.558,1067.9Zm-38.9,1.141-.177-.007c-1.637-.14-3.289-.305-4.91-.492a2.034,2.034,0,1,1,.465-4.041c1.582.181,3.2.343,4.792.479a2.034,2.034,0,0,1-.171,4.061Zm24.35.333a2.034,2.034,0,0,1-.116-4.066c1.6-.092,3.213-.208,4.8-.346a2.034,2.034,0,1,1,.354,4.053c-1.631.141-3.287.261-4.922.355Zm-9.745.284h-.1c-1.607,0-3.231-.022-4.827-.066a2.034,2.034,0,1,1,.114-4.067c1.558.043,3.144.065,4.713.065h.1a2.034,2.034,0,1,1,0,4.068Z" transform="translate(-754.47 -731.072)" fill="#14294c"/>
          </g>
          <g id="Grupo_6886" data-name="Grupo 6886" transform="translate(604.437 299.543)">
            <path id="Trazado_3323" data-name="Trazado 3323" d="M2116.041,1198.453h-10.817v10.009h12.056v3.007h-15.647v-27.761h15.027v3.007h-11.436v8.772h10.817Z" transform="translate(-2101.632 -1183.707)" fill="#14294c"/>
          </g>
          <g id="Grupo_6887" data-name="Grupo 6887" transform="translate(603.692 298.8)">
            <path id="Trazado_3324" data-name="Trazado 3324" d="M2100.922,1209.273h14.158v-1.521h-12.056v-11.495h10.817v-1.48h-10.817v-10.259h11.436V1183h-13.538Zm15.647,1.486h-17.136v-29.247h16.517v4.493h-11.436v7.287h10.817v4.451h-10.817v8.523h12.055Z" transform="translate(-2099.433 -1181.512)" fill="#14294c"/>
          </g>
          <g id="Grupo_6888" data-name="Grupo 6888" transform="translate(308.524 0.743)">
            <path id="Trazado_3325" data-name="Trazado 3325" d="M1227.721,329.03V301.27h3.923l8.918,14.044a78.643,78.643,0,0,1,4.995,9.02l.083-.041c-.33-3.706-.413-7.084-.413-11.408V301.27h3.385v27.76h-3.633l-8.835-14.086a87.967,87.967,0,0,1-5.2-9.268l-.124.042c.206,3.5.288,6.838.288,11.45V329.03Z" transform="translate(-1227.721 -301.27)" fill="#14294c"/>
          </g>
          <g id="Grupo_6889" data-name="Grupo 6889" transform="translate(307.779 0)">
            <path id="Trazado_3326" data-name="Trazado 3326" d="M1243.937,326.835h2.476V300.561h-1.9v10.872c0,4.049.07,7.528.41,11.344l.045.506-1.224.6-.321-.69a78.386,78.386,0,0,0-4.949-8.935l-8.7-13.7h-2.768v26.274h1.9V315.716c0-4.635-.083-7.939-.287-11.406l-.034-.565,1.294-.439.282.6a85.784,85.784,0,0,0,5.157,9.187Zm3.965,1.486h-4.79l-9.054-14.435c-1.531-2.438-2.773-4.551-3.8-6.462.094,2.455.134,5.051.134,8.291v12.605h-4.874V299.075h5.077l9.136,14.391c1.3,2.057,2.451,4.017,3.46,5.925-.134-2.583-.168-5.133-.168-7.958V299.075h4.874Z" transform="translate(-1225.522 -299.075)" fill="#14294c"/>
          </g>
          <g id="Grupo_6890" data-name="Grupo 6890" transform="translate(310.525 603.564)">
            <path id="Trazado_3327" data-name="Trazado 3327" d="M1234.541,2105.409a12.75,12.75,0,0,0,6.44,1.814c3.674,0,5.822-1.937,5.822-4.738,0-2.594-1.486-4.077-5.243-5.52-4.542-1.6-7.349-3.954-7.349-7.866,0-4.325,3.592-7.538,9-7.538a12.659,12.659,0,0,1,6.151,1.36l-.99,2.924a11.1,11.1,0,0,0-5.285-1.318c-3.8,0-5.244,2.265-5.244,4.159,0,2.6,1.693,3.873,5.533,5.356,4.707,1.811,7.1,4.076,7.1,8.154,0,4.284-3.179,7.991-9.744,7.991a14.413,14.413,0,0,1-7.1-1.771Z" transform="translate(-1233.633 -2081.561)" fill="#14294c"/>
          </g>
          <g id="Grupo_6891" data-name="Grupo 6891" transform="translate(309.653 602.822)">
            <path id="Trazado_3328" data-name="Trazado 3328" d="M1232.81,2106.625a14.612,14.612,0,0,0,6.22,1.37c5.467,0,9-2.845,9-7.248,0-3.535-1.857-5.627-6.625-7.461-3.806-1.471-6.009-2.932-6.009-6.049,0-2.362,1.874-4.9,5.988-4.9a11.906,11.906,0,0,1,4.851,1.019l.512-1.511a12.581,12.581,0,0,0-5.24-.987c-4.86,0-8.256,2.794-8.256,6.794,0,3.237,2.178,5.514,6.854,7.167,3.452,1.325,5.739,2.886,5.739,6.22s-2.577,5.48-6.566,5.48a13.488,13.488,0,0,1-5.995-1.455Zm6.22,2.855a15.081,15.081,0,0,1-7.514-1.9l-.458-.306,1.346-4.458.824.506a12.059,12.059,0,0,0,6.05,1.7c3.131,0,5.077-1.531,5.077-3.994,0-1.9-.78-3.3-4.766-4.826-5.259-1.859-7.826-4.662-7.826-8.561,0-4.875,4.008-8.279,9.745-8.279a13.2,13.2,0,0,1,6.518,1.457l.535.3-1.472,4.342-.777-.423a10.316,10.316,0,0,0-4.928-1.227c-3.321,0-4.5,1.84-4.5,3.417,0,2.051,1.229,3.184,5.056,4.663,5.311,2.043,7.578,4.69,7.578,8.847C1249.519,2104.776,1246.772,2109.48,1239.03,2109.48Z" transform="translate(-1231.057 -2079.369)" fill="#14294c"/>
          </g>
          <g id="Grupo_6892" data-name="Grupo 6892" transform="translate(1.002 307.369)">
            <path id="Trazado_3329" data-name="Trazado 3329" d="M323.244,1206.817l2.642,10.133c.579,2.224,1.115,4.285,1.487,6.343h.124c.454-2.018,1.115-4.16,1.775-6.3l3.261-10.174h3.055l3.1,9.968c.743,2.39,1.321,4.49,1.775,6.508h.124a59.986,59.986,0,0,1,1.527-6.467l2.85-10.009h3.591l-6.441,19.936h-3.3l-3.055-9.515a66.144,66.144,0,0,1-1.775-6.548H333.9a59,59,0,0,1-1.816,6.59l-3.221,9.473h-3.3l-6.028-19.936Z" transform="translate(-319.529 -1206.817)" fill="#14294c"/>
          </g>
          <g id="Grupo_6893" data-name="Grupo 6893" transform="translate(0 306.626)">
            <path id="Trazado_3330" data-name="Trazado 3330" d="M337.394,1224.56h2.217l5.961-18.45h-2.007l-2.7,9.469a59.529,59.529,0,0,0-1.509,6.383l-.1.623h-1.353l-.13-.58c-.441-1.956-1-4.006-1.76-6.45l-2.935-9.445h-1.963l-3.1,9.657c-.643,2.084-1.31,4.247-1.758,6.238l-.13.58h-1.343l-.11-.611c-.365-2.018-.9-4.072-1.464-6.246l-2.508-9.618h-2.137l5.578,18.45h2.216l3.049-8.968a58.75,58.75,0,0,0,1.792-6.5l.123-.593h1.294l.124.59a65.631,65.631,0,0,0,1.757,6.479Zm3.3,1.486h-4.389l-3.221-10.03c-.412-1.3-.777-2.514-1.108-3.75-.368,1.363-.763,2.615-1.15,3.8l-3.394,9.985h-4.39l-6.477-21.421h5.293l2.787,10.688c.317,1.219.622,2.39.894,3.538.334-1.175.7-2.362,1.06-3.529l3.429-10.7h4.148l3.259,10.491c.405,1.3.754,2.5,1.06,3.624.288-1.214.614-2.412.939-3.564l3-10.551h5.177Z" transform="translate(-316.569 -1204.624)" fill="#14294c"/>
          </g>
          <g id="Grupo_6894" data-name="Grupo 6894" transform="translate(536.692 73.791)">
            <path id="Trazado_3331" data-name="Trazado 3331" d="M1901.564,527.871,1912.511,517l1.806,1.811-1.43,9.618a42.092,42.092,0,0,1-1.255,5.84l.055.022a58.121,58.121,0,0,1,4.308-4.658l4.58-4.55,1.559,1.564-10.947,10.872-1.673-1.677,1.483-9.6a47.377,47.377,0,0,1,1.258-6.031l-.073-.042c-1.286,1.466-2.563,2.811-4.382,4.617l-4.678,4.646Z" transform="translate(-1901.564 -517)" fill="#14294c"/>
          </g>
          <g id="Grupo_6895" data-name="Grupo 6895" transform="translate(549.206 86.333)">
            <path id="Trazado_3332" data-name="Trazado 3332" d="M1950.293,566.467l-4.984-4.995-3.947,3.92,5.554,5.567-1.186,1.177-7.209-7.225,10.947-10.872,6.924,6.939-1.186,1.177-5.268-5.28-3.46,3.436,4.983,4.994Z" transform="translate(-1938.522 -554.039)" fill="#14294c"/>
          </g>
          <g id="Grupo_6896" data-name="Grupo 6896" transform="translate(73.522 82.459)">
            <path id="Trazado_3333" data-name="Trazado 3333" d="M544.6,563.121,533.7,552.2l1.815-1.8,9.641,1.426a42.507,42.507,0,0,1,5.854,1.253l.022-.054a58.516,58.516,0,0,1-4.67-4.3l-4.559-4.57,1.567-1.556,10.9,10.922-1.681,1.669-9.618-1.48a47.594,47.594,0,0,1-6.046-1.255l-.042.073c1.47,1.282,2.818,2.557,4.629,4.372l4.656,4.667Z" transform="translate(-533.7 -542.597)" fill="#14294c"/>
          </g>
          <g id="Grupo_6897" data-name="Grupo 6897" transform="translate(84.928 65.115)">
            <path id="Trazado_3334" data-name="Trazado 3334" d="M581.55,514.673,567.385,507l1.758-1.746,7.042,4.007c1.741.982,3.443,2,4.722,2.827l.039-.038a54.129,54.129,0,0,1-2.732-4.835l-3.778-7.218,1.739-1.727,7.1,3.986A52.353,52.353,0,0,1,587.9,505.1l.038-.038c-.929-1.465-1.778-3.04-2.735-4.8l-3.8-7.2,1.7-1.689,7.248,14.546-1.739,1.728-7.3-4.075a40.365,40.365,0,0,1-4.4-2.73l-.038.038a42.151,42.151,0,0,1,2.562,4.552l3.841,7.509Z" transform="translate(-567.385 -491.378)" fill="#14294c"/>
          </g>
          <g id="Grupo_6898" data-name="Grupo 6898" transform="translate(94.86 535.883)">
            <path id="Trazado_3335" data-name="Trazado 3335" d="M612.411,1888.9a9.407,9.407,0,0,0-2.253-3.684c-1.693-1.7-3.445-1.929-4.55-.832-1.024,1.016-.923,2.283.239,4.582,1.459,2.725,1.827,4.942.284,6.475-1.706,1.693-4.628,1.292-7.119-1.2a9.454,9.454,0,0,1-2.3-3.373l1.61-.687a8.235,8.235,0,0,0,1.915,2.956c1.75,1.754,3.309,1.533,4.056.792,1.023-1.016.747-2.3-.438-4.652-1.454-2.882-1.664-4.875-.056-6.472,1.69-1.677,4.616-1.661,7.64,1.369a10.7,10.7,0,0,1,2.574,3.973Z" transform="translate(-596.714 -1881.681)" fill="#14294c"/>
          </g>
          <g id="Grupo_6899" data-name="Grupo 6899" transform="translate(77.232 520.882)">
            <path id="Trazado_3336" data-name="Trazado 3336" d="M568,1846.166l-7.693,14.132-1.75-1.754,4.016-7.026c.984-1.736,2.006-3.435,2.833-4.712l-.038-.038a54.085,54.085,0,0,1-4.847,2.726l-7.234,3.768-1.731-1.735,4-7.08a52.13,52.13,0,0,1,2.858-4.621l-.038-.038c-1.468.926-3.048,1.774-4.813,2.728l-7.214,3.787-1.693-1.7,14.579-7.231,1.732,1.736-4.084,7.282a40.188,40.188,0,0,1-2.736,4.387l.039.038a42.314,42.314,0,0,1,4.562-2.557l7.527-3.832Z" transform="translate(-544.656 -1837.377)" fill="#14294c"/>
          </g>
          <g id="Grupo_6900" data-name="Grupo 6900" transform="translate(517.325 103.871)">
            <path id="Trazado_3337" data-name="Trazado 3337" d="M1861.733,605.834l-17.365,17.323,2.118,2.114,17.365-17.323Z" transform="translate(-1844.368 -605.834)" fill="#14294c"/>
          </g>
          <g id="Grupo_6901" data-name="Grupo 6901" transform="translate(108.606 511.63)">
            <path id="Trazado_3338" data-name="Trazado 3338" d="M654.676,1810.056l-17.364,17.322,2.119,2.114,17.364-17.322Z" transform="translate(-637.312 -1810.056)" fill="#14294c"/>
          </g>
          <g id="Grupo_6902" data-name="Grupo 6902" transform="translate(513.553 507.866)">
            <path id="Trazado_3339" data-name="Trazado 3339" d="M1835.347,1798.94l-2.119,2.114,17.365,17.324,2.119-2.114Z" transform="translate(-1833.228 -1798.94)" fill="#14294c"/>
          </g>
          <g id="Grupo_6903" data-name="Grupo 6903" transform="translate(104.835 100.106)">
            <path id="Trazado_3340" data-name="Trazado 3340" d="M626.176,596.829l17.363,17.324,2.119-2.114-17.364-17.323Z" transform="translate(-626.176 -594.715)" fill="#14294c"/>
          </g>
          <g id="Grupo_6904" data-name="Grupo 6904" transform="translate(546.215 522.697)">
            <path id="Trazado_3341" data-name="Trazado 3341" d="M1936.925,1844.34a9.435,9.435,0,0,0-3.693,2.247c-1.7,1.689-1.935,3.438-.835,4.539,1.019,1.021,2.289.921,4.593-.239,2.733-1.456,4.954-1.822,6.49-.283,1.7,1.7,1.3,4.617-1.208,7.1a9.449,9.449,0,0,1-3.381,2.293l-.689-1.606a8.25,8.25,0,0,0,2.964-1.911c1.757-1.745,1.537-3.3.793-4.046-1.018-1.021-2.3-.746-4.662.436-2.89,1.45-4.888,1.66-6.488.056-1.681-1.686-1.665-4.606,1.373-7.622a10.726,10.726,0,0,1,3.982-2.568Z" transform="translate(-1929.688 -1842.739)" fill="#14294c"/>
          </g>
          <g id="Grupo_6905" data-name="Grupo 6905" transform="translate(534.848 532.163)">
            <path id="Trazado_3342" data-name="Trazado 3342" d="M1901.8,1882.437l5.006-4.972-3.929-3.937-5.58,5.542-1.18-1.182,7.242-7.193,10.9,10.922-6.956,6.908-1.18-1.183,5.293-5.257-3.444-3.451-5.006,4.972Z" transform="translate(-1896.117 -1870.693)" fill="#14294c"/>
          </g>
          <g id="Grupo_6906" data-name="Grupo 6906" transform="translate(292.971 81.028)">
            <path id="Trazado_3343" data-name="Trazado 3343" d="M1209.85,785.83a13.341,13.341,0,1,1,13.531-13.339A13.52,13.52,0,0,1,1209.85,785.83Zm28.058-14.841a28,28,0,0,0-.735-6.353L1209.85,538.373h0l-27.322,226.259a27.955,27.955,0,0,0-.736,6.355c0,.5.015,1,.042,1.5-.027.5-.042,1-.042,1.5a27.938,27.938,0,0,0,.735,6.352l27.323,226.264h0l27.323-226.258a28.039,28.039,0,0,0,.736-6.356c0-.5-.015-1-.042-1.5C1237.893,771.993,1237.908,771.491,1237.908,770.989Z" transform="translate(-1181.791 -538.373)" fill="#1a1a1a"/>
          </g>
          <g id="Grupo_6907" data-name="Grupo 6907" transform="translate(80.071 287.971)">
            <path id="Trazado_3344" data-name="Trazado 3344" d="M774.339,1177.524a13.371,13.371,0,1,1,13.37,13.5A13.518,13.518,0,0,1,774.339,1177.524Zm14.874,27.994a28.224,28.224,0,0,0,6.369-.734l226.795-27.259h0l-226.791-27.259a28.231,28.231,0,0,0-6.37-.734c-.5,0-1.005.016-1.5.043-.5-.027-1-.043-1.5-.043a28.214,28.214,0,0,0-6.367.734l-226.8,27.259h0l226.791,27.26a28.241,28.241,0,0,0,6.37.734c.5,0,1.007-.016,1.5-.042C788.207,1205.5,788.709,1205.517,789.213,1205.517Z" transform="translate(-553.041 -1149.531)" fill="#1a1a1a"/>
          </g>
          <g id="Grupo_6908" data-name="Grupo 6908" transform="translate(82.637 311.948)">
            <path id="Trazado_3345" data-name="Trazado 3345" d="M795.454,1233.849a13.523,13.523,0,0,1-13.54-13.508h-221.3L787.41,1247.6a28.055,28.055,0,0,0,34.429-27.259H808.994A13.524,13.524,0,0,1,795.454,1233.849Z" transform="translate(-560.619 -1220.341)" fill="#2e4160"/>
          </g>
          <g id="Grupo_6909" data-name="Grupo 6909" transform="translate(82.635 283.957)">
            <path id="Trazado_3346" data-name="Trazado 3346" d="M793.776,1137.676a28.221,28.221,0,0,0-6.368.732l-226.8,27.259h221.3a13.54,13.54,0,0,1,27.079,0h12.845A28.025,28.025,0,0,0,793.776,1137.676Z" transform="translate(-560.612 -1137.676)" fill="#14294c"/>
          </g>
          <g id="Grupo_6910" data-name="Grupo 6910" transform="translate(290.568 283.957)">
            <path id="Trazado_3347" data-name="Trazado 3347" d="M1201.078,1152.159a13.525,13.525,0,0,1,13.541,13.508h221.3l-226.791-27.258a28.055,28.055,0,0,0-34.429,27.258h12.844A13.524,13.524,0,0,1,1201.078,1152.159Z" transform="translate(-1174.695 -1137.676)" fill="#14294c"/>
          </g>
          <g id="Grupo_6911" data-name="Grupo 6911" transform="translate(290.568 311.948)">
            <path id="Trazado_3348" data-name="Trazado 3348" d="M1202.752,1248.334a28.191,28.191,0,0,0,6.367-.734l226.8-27.259h-221.3a13.54,13.54,0,0,1-27.08,0h-12.844A28.025,28.025,0,0,0,1202.752,1248.334Z" transform="translate(-1174.695 -1220.341)" fill="#2e4160"/>
          </g>
          <g id="Grupo_6912" data-name="Grupo 6912" transform="translate(317.004 286.096)">
            <path id="Trazado_3349" data-name="Trazado 3349" d="M1266.306,1170.317a13.523,13.523,0,0,1-13.54,13.507V1404.6l27.323-226.257a27.977,27.977,0,0,0-27.323-34.348v12.813A13.524,13.524,0,0,1,1266.306,1170.317Z" transform="translate(-1252.767 -1143.993)" fill="#3a6477"/>
          </g>
          <g id="Grupo_6913" data-name="Grupo 6913" transform="translate(288.946 286.096)">
            <path id="Trazado_3350" data-name="Trazado 3350" d="M1169.9,1171.985a27.977,27.977,0,0,0,.734,6.352l27.323,226.264V1183.824a13.508,13.508,0,1,1,0-27.017v-12.813h0A28.024,28.024,0,0,0,1169.9,1171.985Z" transform="translate(-1169.903 -1143.993)" fill="#4c819e"/>
          </g>
          <g id="Grupo_6914" data-name="Grupo 6914" transform="translate(288.946 78.653)">
            <path id="Trazado_3351" data-name="Trazado 3351" d="M1184.421,765.643a13.525,13.525,0,0,1,13.54-13.509V531.36l-27.323,226.258a27.974,27.974,0,0,0,27.323,34.347V779.151A13.523,13.523,0,0,1,1184.421,765.643Z" transform="translate(-1169.903 -531.36)" fill="#e4087d"/>
          </g>
          <g id="Grupo_6915" data-name="Grupo 6915" transform="translate(317.004 78.65)">
            <path id="Trazado_3352" data-name="Trazado 3352" d="M1280.824,763.967a27.964,27.964,0,0,0-.735-6.352l-27.323-226.264V752.128a13.508,13.508,0,1,1,0,27.017v12.814A28.025,28.025,0,0,0,1280.824,763.967Z" transform="translate(-1252.767 -531.351)" fill="#a12172"/>
          </g>
          <g id="Grupo_6916" data-name="Grupo 6916" transform="translate(301.287 296.671)">
            <path id="Trazado_3353" data-name="Trazado 3353" d="M1237.784,1190.9a15.717,15.717,0,1,1-15.716-15.679A15.7,15.7,0,0,1,1237.784,1190.9Z" transform="translate(-1206.351 -1175.225)" fill="#cfd1d2"/>
          </g>
          <g id="Grupo_6917" data-name="Grupo 6917" transform="translate(302.174 297.554)">
            <path id="Trazado_3354" data-name="Trazado 3354" d="M1238.629,1192.629a14.83,14.83,0,1,1-14.829-14.8A14.812,14.812,0,0,1,1238.629,1192.629Z" transform="translate(-1208.97 -1177.833)" fill="#919395"/>
          </g>
          <g id="Grupo_6918" data-name="Grupo 6918" transform="translate(308.622 303.987)">
            <path id="Trazado_3355" data-name="Trazado 3355" d="M1244.775,1205.194a8.382,8.382,0,1,1-8.381-8.363A8.372,8.372,0,0,1,1244.775,1205.194Z" transform="translate(-1228.012 -1196.831)" fill="#cfd1d2"/>
          </g>
          <g id="Grupo_6919" data-name="Grupo 6919" transform="translate(309.721 305.084)">
            <path id="Trazado_3356" data-name="Trazado 3356" d="M1245.823,1207.336a7.283,7.283,0,1,1-7.283-7.266A7.275,7.275,0,0,1,1245.823,1207.336Z" transform="translate(-1231.257 -1200.07)" fill="#a5a6a9"/>
          </g>
          <g id="Grupo_6920" data-name="Grupo 6920" transform="translate(310.879 306.239)">
            <path id="Trazado_3357" data-name="Trazado 3357" d="M1246.928,1209.592a6.125,6.125,0,1,1-6.125-6.111A6.118,6.118,0,0,1,1246.928,1209.592Z" transform="translate(-1234.677 -1203.481)" fill="#1a1a1a"/>
          </g>
          <g id="Grupo_6921" data-name="Grupo 6921" transform="translate(312.701 308.058)">
            <path id="Trazado_3358" data-name="Trazado 3358" d="M1248.664,1213.145a4.3,4.3,0,1,1-4.3-4.292A4.3,4.3,0,0,1,1248.664,1213.145Z" transform="translate(-1240.058 -1208.853)" fill="#14294c"/>
          </g>
        </g>
      </g>
    </g>
  </g>
</svg>
